lab12/configuration_chain/run004/k4_N4_tileable_40nm/and2_latch/MIN_ROUTE_CHAN_WIDTH/and2_latch_formal.vcd
$date
	Wed Aug 16 11:44:24 2023
$end
$version
	Icarus Verilog
$end
$timescale
	1ps
$end
$scope module and2_latch_autocheck_top_tb $end
$var wire 1 ! __op_clock__ $end
$var wire 1 " __prog_clock__ $end
$var wire 1 # clk $end
$var wire 32 $ gfpga_pad_GPIO_PAD [0:31] $end
$var wire 1 % prog_clk $end
$var wire 1 & reset $end
$var wire 1 ' set $end
$var wire 1 ( d_fpga $end
$var wire 1 ) d_benchmark $end
$var wire 1 * ccff_tail $end
$var wire 1 + c_fpga $end
$var wire 1 , c_benchmark $end
$var reg 1 - __config_done__ $end
$var reg 1 . __greset__ $end
$var reg 1 / __gset__ $end
$var reg 1 0 __op_clock___reg__ $end
$var reg 1 1 __prog_clock___reg__ $end
$var reg 1 2 __prog_reset__ $end
$var reg 1 3 __prog_set_ $end
$var reg 1 4 a_shared_input $end
$var reg 1 5 b_shared_input $end
$var reg 10 6 bit_index [9:0] $end
$var reg 1 7 c_flag $end
$var reg 1 8 ccff_head $end
$var reg 1 9 d_flag $end
$var reg 10 : ibit [9:0] $end
$var reg 1 ; sim_start $end
$var reg 1 < skip_bits $end
$var integer 32 = nb_error [31:0] $end
$upscope $end
$enddefinitions $end
#0
$dumpvars
b1 =
0<
1;
b110110100 :
09
08
07
b0 6
05
04
13
12
01
00
0/
1.
0-
0,
x+
x*
x)
x(
0'
1&
0%
bx $
0#
0"
0!
$end
#5000
11
#10000
b1 6
01
03
02
#15000
1%
1"
11
#20000
b10 6
18
0%
0"
01
#25000
bx0xxxxxxxxxxxxxxx $
1%
1"
11
#30000
b11 6
0%
0"
01
#35000
bx00xxxxxxxxxxxxxx $
1%
1"
11
#40000
b100 6
0%
0"
01
#45000
bx000xxxxxxxxxxxxx $
1%
1"
11
#50000
b101 6
08
0%
0"
01
#55000
bx000xxxxxxxxxxxx $
1%
1"
11
#60000
b110 6
0%
0"
01
#65000
bx000xxxxxxxxxxx $
1%
1"
11
#70000
b111 6
0%
0"
01
#75000
bx000xxxxxxxxxx $
1%
1"
11
#80000
b1000 6
0%
0"
01
#85000
bx000xxxxxxxxx $
1%
1"
11
#90000
b1001 6
0%
0"
01
#95000
bx000xxxxxxxx $
1%
1"
11
#100000
b1010 6
0%
0"
01
#105000
bx0xxxxxxxxxxxxx00xxxxxxxx $
1%
1"
11
#110000
b1011 6
0%
0"
01
#115000
bx00xxxxxxxxxxxxx0xxxxxxxx $
1%
1"
11
#120000
b1100 6
0%
0"
01
#125000
bx000xxxxxxxxxxxxxxxxxxxxx $
1%
1"
11
#130000
b1101 6
18
0%
0"
01
#135000
bx000xxxx0xxxxxxxxxxxxxxx $
1%
1"
11
#140000
b1110 6
0%
0"
01
#145000
z+
bx00zxxx00xxxxxxxxxxxxxx $
1%
1"
11
#150000
b1111 6
0%
0"
01
#155000
bx0z0xx000xxxxxxxxxxxxx $
1%
1"
11
#160000
b10000 6
08
0%
0"
01
#165000
bxz00xx000xxxxxxxxxxxx $
1%
1"
11
#170000
b10001 6
0%
0"
01
#175000
x+
bx000xx000xxxxxxxxxxx $
1%
1"
11
#180000
b10010 6
0%
0"
01
#185000
bx00xxx000xxxxxxxxxx $
1%
1"
11
#190000
b10011 6
18
0%
0"
01
#195000
bx00xxx000xxxxxxxxx $
1%
1"
11
#200000
b10100 6
08
0%
0"
01
#205000
bx0xxx000xxxxxxxx $
1%
1"
11
#210000
b10101 6
0%
0"
01
#215000
bx0xxxxxxxxx0xxx00xxxxxxxx $
1%
1"
11
#220000
b10110 6
0%
0"
01
#225000
bx00xxxxxxxxx0xxx0xxxxxxxx $
1%
1"
11
#230000
b10111 6
0%
0"
01
#235000
bx000xxxxxxxxx0xxxxxxxxxxx $
1%
1"
11
#240000
b11000 6
0%
0"
01
#245000
bx000xxxxxxxxx0xxxxxxxxxx $
1%
1"
11
#250000
b11001 6
0%
0"
01
#255000
z+
bx00zxxxxxxxxx0xxxxxxxxx $
1%
1"
11
#260000
b11010 6
0%
0"
01
#265000
bx0z0xxxxxxxxx0xxxxxxxx $
1%
1"
11
#270000
b11011 6
0%
0"
01
#275000
bx0xxxz00xxxxxxxxxxxxxxxxx $
1%
1"
11
#280000
b11100 6
0%
0"
01
#285000
x+
bx0xxx000xxxxxxxxxxxxxxxx $
1%
1"
11
#290000
b11101 6
0%
0"
01
#295000
bx0xxx00xxxxxxxxxxxxxxxx $
1%
1"
11
#300000
b11110 6
0%
0"
01
#305000
bx0xxx0xxxxxxxxxxxxxxxx $
1%
1"
11
#310000
b11111 6
0%
0"
01
#315000
z+
bxzxxxxxxxxxxxxxxxxxxx $
1%
1"
11
#320000
b100000 6
0%
0"
01
#325000
x+
bx0xxxxxxxxxxxxxxxxxx $
1%
1"
11
#330000
b100001 6
0%
0"
01
#335000
bx0xxxxxxxxxxxxxxxxx $
1%
1"
11
#340000
b100010 6
0%
0"
01
#345000
bx0xxxxxxxxxxxxxxxx $
1%
1"
11
#350000
b100011 6
0%
0"
01
#355000
bx $
1%
1"
11
#360000
b100100 6
0%
0"
01
#365000
1%
1"
11
#370000
b100101 6
0%
0"
01
#375000
1%
1"
11
#380000
b100110 6
0%
0"
01
#385000
1%
1"
11
#390000
b100111 6
0%
0"
01
#395000
1%
1"
11
#400000
b101000 6
0%
0"
01
#405000
1%
1"
11
#410000
b101001 6
0%
0"
01
#415000
1%
1"
11
#420000
b101010 6
0%
0"
01
#425000
1%
1"
11
#430000
b101011 6
0%
0"
01
#435000
1%
1"
11
#440000
b101100 6
0%
0"
01
#445000
1%
1"
11
#450000
b101101 6
0%
0"
01
#455000
1%
1"
11
#460000
b101110 6
0%
0"
01
#465000
1%
1"
11
#470000
b101111 6
0%
0"
01
#475000
1%
1"
11
#480000
b110000 6
0%
0"
01
#485000
1%
1"
11
#490000
b110001 6
0%
0"
01
#495000
1%
1"
11
#500000
b110010 6
0%
0"
01
#505000
1%
1"
11
#510000
b110011 6
0%
0"
01
#515000
1%
1"
11
#520000
b110100 6
0%
0"
01
#525000
1%
1"
11
#530000
b110101 6
0%
0"
01
#535000
1%
1"
11
#540000
b110110 6
0%
0"
01
#545000
1%
1"
11
#550000
b110111 6
0%
0"
01
#555000
1%
1"
11
#560000
b111000 6
0%
0"
01
#565000
1%
1"
11
#570000
b111001 6
0%
0"
01
#575000
1%
1"
11
#580000
b111010 6
0%
0"
01
#585000
1%
1"
11
#590000
b111011 6
0%
0"
01
#595000
1%
1"
11
#600000
b111100 6
0%
0"
01
#605000
1%
1"
11
#610000
b111101 6
0%
0"
01
#615000
1%
1"
11
#620000
b111110 6
0%
0"
01
#625000
1%
1"
11
#630000
b111111 6
0%
0"
01
#635000
1%
1"
11
#640000
b1000000 6
0%
0"
01
#645000
1%
1"
11
#650000
b1000001 6
18
0%
0"
01
#655000
bx0xxxxxxxxxxxxxxx $
1%
1"
11
#660000
b1000010 6
08
0%
0"
01
#665000
bx0xxxxxxxxxxxxxx $
1%
1"
11
#670000
b1000011 6
0%
0"
01
#675000
bx0xxxxxxxxxxxxx $
1%
1"
11
#680000
b1000100 6
0%
0"
01
#685000
bx0xxxxxxxxxxxx $
1%
1"
11
#690000
b1000101 6
0%
0"
01
#695000
bx0xxxxxxxxxxx $
1%
1"
11
#700000
b1000110 6
0%
0"
01
#705000
bx0xxxxxxxxxx $
1%
1"
11
#710000
b1000111 6
0%
0"
01
#715000
bx0xxxxxxxxx $
1%
1"
11
#720000
b1001000 6
0%
0"
01
#725000
bx0xxxxxxxx $
1%
1"
11
#730000
b1001001 6
0%
0"
01
#735000
bx0xxxxxxxxxxxxxxxxxxxxxxx $
1%
1"
11
#740000
b1001010 6
0%
0"
01
#745000
bx0xxxxxxxxxxxxxxxxxxxxxx $
1%
1"
11
#750000
b1001011 6
0%
0"
01
#755000
bx0xxxxxxxxxxxxxxxxxxxxx $
1%
1"
11
#760000
b1001100 6
18
0%
0"
01
#765000
bx0xxxx0xxxxxxxxxxxxxxx $
1%
1"
11
#770000
b1001101 6
08
0%
0"
01
#775000
z+
bxzxxxx0xxxxxxxxxxxxxx $
1%
1"
11
#780000
b1001110 6
18
0%
0"
01
#785000
x+
bx0xx0x0xxxxxxxxxxxxx $
1%
1"
11
#790000
b1001111 6
08
0%
0"
01
#795000
bx0xx0x0xxxxxxxxxxxx $
1%
1"
11
#800000
b1010000 6
18
0%
0"
01
#805000
bx00x0x0xxxxxxxxxxx $
1%
1"
11
#810000
b1010001 6
08
0%
0"
01
#815000
bx0x0x0xxxxxxxxxx $
1%
1"
11
#820000
b1010010 6
18
0%
0"
01
#825000
bx0x0x0x0xxxxxxxxx $
1%
1"
11
#830000
b1010011 6
0%
0"
01
#835000
bx00x0x0x0xxxxxxxx $
1%
1"
11
#840000
b1010100 6
0%
0"
01
#845000
b0xxxxxxx0xxxxxxx000x0x0xxxxxxxxx $
1%
1"
11
#850000
b1010101 6
08
0%
0"
01
#855000
b0xxxxxxx0xxxxxxx000x0x0xxxxxxxx $
1%
1"
11
#860000
b1010110 6
0%
0"
01
#865000
b0xxxxx0x0xxxxxxx000x0xxxxxxxxx $
1%
1"
11
#870000
b1010111 6
0%
0"
01
#875000
b0xxxxx0x0xxxxxxx000x0xxxxxxxx $
1%
1"
11
#880000
b1011000 6
0%
0"
01
#885000
z+
b0xxx0x0xzxxxxxxx000xxxxxxxxx $
1%
1"
11
#890000
b1011001 6
0%
0"
01
#895000
x+
b0xxx0x0x0xxxxxxx000xxxxxxxx $
1%
1"
11
#900000
b1011010 6
0%
0"
01
#905000
z+
b0x0x0xzx0xxxxxxx00xxxxxxxx $
1%
1"
11
#910000
b1011011 6
0%
0"
01
#915000
x+
b0x0x0x0xxxxxxx0xxxxxxxx $
1%
1"
11
#920000
b1011100 6
0%
0"
01
#925000
z+
b0xzx0xxxxxxxxxxxxxxxxx $
1%
1"
11
#930000
b1011101 6
18
0%
0"
01
#935000
x+
b0x000x0x00xxxxxxxxxxxxxxx $
1%
1"
11
#940000
b1011110 6
0%
0"
01
#945000
z+
b0xx00zx0x00xxxxxxxxxxxxxx $
1%
1"
11
#950000
b1011111 6
0%
0"
01
#955000
b0xxx0z0x0000xxxxxxxxxxxxx $
1%
1"
11
#960000
b1100000 6
0%
0"
01
#965000
b0xxxxz00x0000xxxxxxxxxxxx $
1%
1"
11
#970000
b1100001 6
0%
0"
01
#975000
x+
b0xxxxx00000000xxxxxxxxxxx $
1%
1"
11
#980000
b1100010 6
0%
0"
01
#985000
b0xxxxxx00000000xxxxxxxxxx $
1%
1"
11
#990000
b1100011 6
0%
0"
01
#995000
b0xxxxxxx00000000xxxxxxxxx $
1%
1"
11
#1000000
b1100100 6
0%
0"
01
#1005000
b0xxxxxxxx00000000xxxxxxxx $
1%
1"
11
#1010000
b1100101 6
08
0%
0"
01
#1015000
b0xxxxxxxx0000000xxxxxxxx $
1%
1"
11
#1020000
b1100110 6
0%
0"
01
#1025000
b0xxxxxxxx000000xxxxxxxx $
1%
1"
11
#1030000
b1100111 6
0%
0"
01
#1035000
b0xxxxxxxx00000xxxxxxxx $
1%
1"
11
#1040000
b1101000 6
0%
0"
01
#1045000
b0xxxxxxxx0000xxxxxxxx $
1%
1"
11
#1050000
b1101001 6
0%
0"
01
#1055000
z+
b0zxxxxxxxx000xxxxxxxx $
1%
1"
11
#1060000
b1101010 6
0%
0"
01
#1065000
b0z0xxxxxxxx00xxxxxxxx $
1%
1"
11
#1070000
b1101011 6
0%
0"
01
#1075000
b0z00xxxxxxxx0xxxxxxxx $
1%
1"
11
#1080000
b1101100 6
0%
0"
01
#1085000
b0z000xxxxxxxxxxxxxxxx $
1%
1"
11
#1090000
b1101101 6
0%
0"
01
#1095000
b0x000z000xxxxxxxxxxxxxxxx $
1%
1"
11
#1100000
b1101110 6
0%
0"
01
#1105000
b0xx00z000xxxxxxxxxxxxxxxx $
1%
1"
11
#1110000
b1101111 6
0%
0"
01
#1115000
b0xxx0z000xxxxxxxxxxxxxxxx $
1%
1"
11
#1120000
b1110000 6
0%
0"
01
#1125000
b0xxxxz000xxxxxxxxxxxxxxxx $
1%
1"
11
#1130000
b1110001 6
0%
0"
01
#1135000
x+
b0xxxxx000xxxxxxxxxxxxxxxx $
1%
1"
11
#1140000
b1110010 6
0%
0"
01
#1145000
b0xxxxxx00xxxxxxxxxxxxxxxx $
1%
1"
11
#1150000
b1110011 6
0%
0"
01
#1155000
b0xxxxxxx0xxxxxxxxxxxxxxxx $
1%
1"
11
#1160000
b1110100 6
0%
0"
01
#1165000
b0xxxxxxxxxxxxxxxxxxxxxxxx $
1%
1"
11
#1170000
b1110101 6
0%
0"
01
#1175000
1%
1"
11
#1180000
b1110110 6
0%
0"
01
#1185000
b0xxxxxxxxxxxxxxxxxxxxxxxx $
1%
1"
11
#1190000
b1110111 6
0%
0"
01
#1195000
b0xxxxxxxxxxxxxxxxxxxxxxxx $
1%
1"
11
#1200000
b1111000 6
0%
0"
01
#1205000
b0xxxxxxxxxxxxxxxxxxxxxxxx $
1%
1"
11
#1210000
b1111001 6
0%
0"
01
#1215000
b0xxxxxxxxxxxxxxxxxxxxxxxx $
1%
1"
11
#1220000
b1111010 6
0%
0"
01
#1225000
b0xxxxxxxxxxxxxxxxxxxxxxxx $
1%
1"
11
#1230000
b1111011 6
0%
0"
01
#1235000
b0xxxxxxxxxxxxxxxxxxxxxxxx $
1%
1"
11
#1240000
b1111100 6
0%
0"
01
#1245000
b0xxxxxxxxxxxxxxxxxxxxxxxx $
1%
1"
11
#1250000
b1111101 6
0%
0"
01
#1255000
b0xxxxxxxxxxxxxxxxxxxxxxxx $
1%
1"
11
#1260000
b1111110 6
0%
0"
01
#1265000
b0xxxxxxxxxxxxxxxxxxxxxxxx $
1%
1"
11
#1270000
b1111111 6
0%
0"
01
#1275000
b0xxxxxxxxxxxxxxxxxxxxxxxx $
1%
1"
11
#1280000
b10000000 6
0%
0"
01
#1285000
b0xxxxxxxxxxxxxxxxxxxxxxxx $
1%
1"
11
#1290000
b10000001 6
0%
0"
01
#1295000
b0xxxxxxxxxxxxxxxxxxxxxxxx $
1%
1"
11
#1300000
b10000010 6
0%
0"
01
#1305000
b0xxxxxxxxxxxxxxxxxxxxxxxx $
1%
1"
11
#1310000
b10000011 6
0%
0"
01
#1315000
b0xxxxxxxxxxxxxxxxxxxxxxxx $
1%
1"
11
#1320000
b10000100 6
0%
0"
01
#1325000
b0xxxxxxxxxxxxxxxxxxxxxxxx $
1%
1"
11
#1330000
b10000101 6
0%
0"
01
#1335000
b0xxxxxxxxxxxxxxxxxxxxxxxx $
1%
1"
11
#1340000
b10000110 6
0%
0"
01
#1345000
b0xxxxxxxxxxxxxxxxxxxxxxxx $
1%
1"
11
#1350000
b10000111 6
0%
0"
01
#1355000
b0xxxxxxxxxxxxxxxxxxxxxxxx $
1%
1"
11
#1360000
b10001000 6
0%
0"
01
#1365000
b0xxxxxxxxxxxxxxxxxxxxxxxx $
1%
1"
11
#1370000
b10001001 6
0%
0"
01
#1375000
b0xxxxxxxxxxxxxxxxxxxxxxxx $
1%
1"
11
#1380000
b10001010 6
0%
0"
01
#1385000
b0xxxxxxxxxxxxxxxxxxxxxxxx $
1%
1"
11
#1390000
b10001011 6
0%
0"
01
#1395000
b0xxxxxxxxxxxxxxxxxxxxxxxx $
1%
1"
11
#1400000
b10001100 6
0%
0"
01
#1405000
b0xxxxxxxxxxxxxxxxxxxxxxxx $
1%
1"
11
#1410000
b10001101 6
18
0%
0"
01
#1415000
b0xxxxxxxx0xxxxxxxxxxxxxxx $
1%
1"
11
#1420000
b10001110 6
08
0%
0"
01
#1425000
b0xxxxxxxxx0xxxxxxxxxxxxxx $
1%
1"
11
#1430000
b10001111 6
0%
0"
01
#1435000
b0xxxxxxxxxx0xxxxxxxxxxxxx $
1%
1"
11
#1440000
b10010000 6
0%
0"
01
#1445000
b0x00xxxxxxxxxxx0xxxxxxxxxxxx $
1%
1"
11
#1450000
b10010001 6
0%
0"
01
#1455000
b0xxxxxxxxxxxx0xxxxxxxxxxx $
1%
1"
11
#1460000
b10010010 6
0%
0"
01
#1465000
b0xxxxxxxxxxxxx0xxxxxxxxxx $
1%
1"
11
#1470000
b10010011 6
0%
0"
01
#1475000
b0xxxxxxxxxxxxxx0xxxxxxxxx $
1%
1"
11
#1480000
b10010100 6
0%
0"
01
#1485000
b0xxxxxxxxxxxxxxx0xxxxxxxx $
1%
1"
11
#1490000
b10010101 6
0%
0"
01
#1495000
b0xxxxxxxxxxxxxxxxxxxxxxx $
1%
1"
11
#1500000
b10010110 6
0%
0"
01
#1505000
b0x0xxxxxxxxxxxxxxxxxxxxxx $
1%
1"
11
#1510000
b10010111 6
0%
0"
01
#1515000
b0xx0xxxxxxxxxxxxxxxxxxxxx $
1%
1"
11
#1520000
b10011000 6
0%
0"
01
#1525000
b0xxx0xxxxxxxxxxxxxxxxxxxx $
1%
1"
11
#1530000
b10011001 6
0%
0"
01
#1535000
z+
b0xxxxzxxxxxxxxxxxxxxxxxxx $
1%
1"
11
#1540000
b10011010 6
18
0%
0"
01
#1545000
x+
b0xxxxx0xx0xxxxxxxxxxxxxxx $
1%
1"
11
#1550000
b10011011 6
08
0%
0"
01
#1555000
b0xxxxxx0xx0xxxxxxxxxxxxxx $
1%
1"
11
#1560000
b10011100 6
0%
0"
01
#1565000
b0xxxxxxx0xx0xxxxxxxxxxxxx $
1%
1"
11
#1570000
b10011101 6
0%
0"
01
#1575000
b0xxxxxxxxxxx0xxxxxxxxxxxx $
1%
1"
11
#1580000
b10011110 6
0%
0"
01
#1585000
b0xxxxxxxxxxxx0xxxxxxxxxxx $
1%
1"
11
#1590000
b10011111 6
0%
0"
01
#1595000
b0xxxxxxxxxxxxx0xxxxxxxxxx $
1%
1"
11
#1600000
b10100000 6
0%
0"
01
#1605000
b0xxxxxxxxxxxxxx0xxxxxxxxx $
1%
1"
11
#1610000
b10100001 6
0%
0"
01
#1615000
b0xxxxxxxxxxxxxxx0xxxxxxxx $
1%
1"
11
#1620000
b10100010 6
0%
0"
01
#1625000
b0xxxxxxxxxxxxxxxxxxxxxxx $
1%
1"
11
#1630000
b10100011 6
0%
0"
01
#1635000
b0x0xxxxxxxxxxxxxxxxxxxxxx $
1%
1"
11
#1640000
b10100100 6
0%
0"
01
#1645000
b0xx0xxxxxxxxxxxxxxxxxxxxx $
1%
1"
11
#1650000
b10100101 6
0%
0"
01
#1655000
b0xxx0xxxxxxxxxxxxxxxxxxxx $
1%
1"
11
#1660000
b10100110 6
0%
0"
01
#1665000
z+
b0xxxxzxxxxxxxxxxxxxxxxxxx $
1%
1"
11
#1670000
b10100111 6
0%
0"
01
#1675000
x+
b0xxxxx0xxxxxxxxxxxxxxxxxx $
1%
1"
11
#1680000
b10101000 6
0%
0"
01
#1685000
b0xxxxxx0xxxxxxxxxxxxxxxxx $
1%
1"
11
#1690000
b10101001 6
0%
0"
01
#1695000
b0xxxxxxx0xxxxxxxxxxxxxxxx $
1%
1"
11
#1700000
b10101010 6
0%
0"
01
#1705000
b0xxxxxxxxxxxxxxxxxxxxxxxx $
1%
1"
11
#1710000
b10101011 6
0%
0"
01
#1715000
1%
1"
11
#1720000
b10101100 6
0%
0"
01
#1725000
1%
1"
11
#1730000
b10101101 6
0%
0"
01
#1735000
1%
1"
11
#1740000
b10101110 6
0%
0"
01
#1745000
1%
1"
11
#1750000
b10101111 6
0%
0"
01
#1755000
b0xxxxxxxxxxxxxxxxxxxxxxxx $
1%
1"
11
#1760000
b10110000 6
0%
0"
01
#1765000
b0xxxxxxxxxxxxxxxxxxxxxxxx $
1%
1"
11
#1770000
b10110001 6
0%
0"
01
#1775000
1%
1"
11
#1780000
b10110010 6
0%
0"
01
#1785000
1%
1"
11
#1790000
b10110011 6
0%
0"
01
#1795000
1%
1"
11
#1800000
b10110100 6
0%
0"
01
#1805000
1%
1"
11
#1810000
b10110101 6
0%
0"
01
#1815000
1%
1"
11
#1820000
b10110110 6
0%
0"
01
#1825000
1%
1"
11
#1830000
b10110111 6
0%
0"
01
#1835000
1%
1"
11
#1840000
b10111000 6
0%
0"
01
#1845000
1%
1"
11
#1850000
b10111001 6
0%
0"
01
#1855000
1%
1"
11
#1860000
b10111010 6
0%
0"
01
#1865000
1%
1"
11
#1870000
b10111011 6
0%
0"
01
#1875000
1%
1"
11
#1880000
b10111100 6
0%
0"
01
#1885000
1%
1"
11
#1890000
b10111101 6
0%
0"
01
#1895000
1%
1"
11
#1900000
b10111110 6
0%
0"
01
#1905000
1%
1"
11
#1910000
b10111111 6
0%
0"
01
#1915000
1%
1"
11
#1920000
b11000000 6
0%
0"
01
#1925000
1%
1"
11
#1930000
b11000001 6
18
0%
0"
01
#1935000
b0xxxxxxxx0xxxxxxx0xxxxxxx $
1%
1"
11
#1940000
b11000010 6
08
0%
0"
01
#1945000
b0xxxxxxxxx0xxxxxx00xxxxxx $
1%
1"
11
#1950000
b11000011 6
0%
0"
01
#1955000
0(
b0xxxxxxxxxx0xxxxx000xxxxx $
1%
1"
11
#1960000
b11000100 6
0%
0"
01
#1965000
z(
b0xxxxxxxxxxx0xxxx00z0xxxx $
1%
1"
11
#1970000
b11000101 6
0%
0"
01
#1975000
b0xxxxxxxxxxxx0xxx00z00xxx $
1%
1"
11
#1980000
b11000110 6
0%
0"
01
#1985000
b0xxxxxxxxxxxxx0xx00z000xx $
1%
1"
11
#1990000
b11000111 6
0%
0"
01
#1995000
0(
b0xxxxxxxxxxxxxx0x0000000x $
1%
1"
11
#2000000
b11001000 6
0%
0"
01
#2005000
b0xxxxxxxxxxxxxxx000000000 $
1%
1"
11
#2010000
b11001001 6
0%
0"
01
#2015000
b0xxxxxxxxxxxxxxx00000000 $
1%
1"
11
#2020000
b11001010 6
0%
0"
01
#2025000
b0x0xxxxxxxxxxxxxx00000000 $
1%
1"
11
#2030000
b11001011 6
0%
0"
01
#2035000
b0x0000xx0xxxxxxxxxxxxx00000000 $
1%
1"
11
#2040000
b11001100 6
18
0%
0"
01
#2045000
b0xxx0xxxx0xxxxxxx00000000 $
1%
1"
11
#2050000
b11001101 6
0%
0"
01
#2055000
z+
b0xxxxzxxx00xxxxxx00000000 $
1%
1"
11
#2060000
b11001110 6
08
0%
0"
01
#2065000
x+
b0xxxxx0xxx00xxxxx000000x0 $
1%
1"
11
#2070000
b11001111 6
0%
0"
01
#2075000
z(
b0xxxxxx0xxx00xxxx00z00000 $
1%
1"
11
#2080000
b11010000 6
0%
0"
01
#2085000
b0xxxxxxx0xxx00xxx00z00000 $
1%
1"
11
#2090000
b11010001 6
0%
0"
01
#2095000
b0xxxxxxxxxxxx00xx00z00000 $
1%
1"
11
#2100000
b11010010 6
0%
0"
01
#2105000
0(
b0xxxxxxxxxxxxx00x00000000 $
1%
1"
11
#2110000
b11010011 6
0%
0"
01
#2115000
b0xxxxxxxxxxxxxx0000000000 $
1%
1"
11
#2120000
b11010100 6
0%
0"
01
#2125000
b0xxxxxxxxxxxxxx000000000 $
1%
1"
11
#2130000
b11010101 6
0%
0"
01
#2135000
z(
b0xxxxxxxxxxxxxx00z00000 $
1%
1"
11
#2140000
b11010110 6
0%
0"
01
#2145000
0(
b0x00xxxxxxxxxxxxx00000000 $
1%
1"
11
#2150000
b11010111 6
0%
0"
01
#2155000
b0xx00xxxxxxxxxxxx00000000 $
1%
1"
11
#2160000
b11011000 6
0%
0"
01
#2165000
z+
b0xxx0zxxxxxxxxxxx00000000 $
1%
1"
11
#2170000
b11011001 6
0%
0"
01
#2175000
b0xxxxz0xxxxxxxxxx00000000 $
1%
1"
11
#2180000
b11011010 6
0%
0"
01
#2185000
x+
b0xxxxx00xxxxxxxxx00000000 $
1%
1"
11
#2190000
b11011011 6
0%
0"
01
#2195000
b0xxxxxx00xxxxxxxx00000000 $
1%
1"
11
#2200000
b11011100 6
0%
0"
01
#2205000
b0xxxxxxx0xxxxxxxx00000000 $
1%
1"
11
#2210000
b11011101 6
0%
0"
01
#2215000
b0xxxxxxxxxxxxxxxx00000000 $
1%
1"
11
#2220000
b11011110 6
0%
0"
01
#2225000
b0xxxxxxxxxxxxxxxx00000000 $
1%
1"
11
#2230000
b11011111 6
0%
0"
01
#2235000
b0xxxxxxxxxxxxxxxx00000000 $
1%
1"
11
#2240000
b11100000 6
0%
0"
01
#2245000
b0xxxxxxxxxxxxxxxx00000000 $
1%
1"
11
#2250000
b11100001 6
0%
0"
01
#2255000
b0xxxxxxxxxxxxxxxx00000000 $
1%
1"
11
#2260000
b11100010 6
0%
0"
01
#2265000
b0xxxxxxxxxxxxxxxx00000000 $
1%
1"
11
#2270000
b11100011 6
0%
0"
01
#2275000
b0xxxxxxxxxxxxxxxx00000000 $
1%
1"
11
#2280000
b11100100 6
0%
0"
01
#2285000
b0xxxxxxxxxxxxxxxx00000000 $
1%
1"
11
#2290000
b11100101 6
0%
0"
01
#2295000
b0xxxxxxxxxxxxxxxx00000000 $
1%
1"
11
#2300000
b11100110 6
0%
0"
01
#2305000
b0xxxxxxxxxxxxxxxx00000000 $
1%
1"
11
#2310000
b11100111 6
0%
0"
01
#2315000
1%
1"
11
#2320000
b11101000 6
0%
0"
01
#2325000
1%
1"
11
#2330000
b11101001 6
0%
0"
01
#2335000
1%
1"
11
#2340000
b11101010 6
0%
0"
01
#2345000
b0xxxxxxxxxxxxxxxx00000000 $
1%
1"
11
#2350000
b11101011 6
0%
0"
01
#2355000
b0xxxxxxxxxxxxxxxx00000000 $
1%
1"
11
#2360000
b11101100 6
18
0%
0"
01
#2365000
b0xxxxxxxx0xxxxxxx00000000 $
1%
1"
11
#2370000
b11101101 6
0%
0"
01
#2375000
b0xxxxxxxx00xxxxxx00000000 $
1%
1"
11
#2380000
b11101110 6
0%
0"
01
#2385000
b0xxxxxxxx000xxxxx00000000 $
1%
1"
11
#2390000
b11101111 6
0%
0"
01
#2395000
b0xxxxxxxx0000xxxx00000000 $
1%
1"
11
#2400000
b11110000 6
0%
0"
01
#2405000
0(
b0xxxxxxxx00000xxx00000000 $
1%
1"
11
#2410000
b11110001 6
08
0%
0"
01
#2415000
0(
b0xxxxxxxxx00000xx00000000 $
1%
1"
11
#2420000
b11110010 6
18
0%
0"
01
#2425000
0(
b0xxxxxxxx0x00000x00000000 $
1%
1"
11
#2430000
b11110011 6
0%
0"
01
#2435000
b0xxxxxxxx00x0000000000000 $
1%
1"
11
#2440000
b11110100 6
08
0%
0"
01
#2445000
b0xxxxxxxx00x000000000000 $
1%
1"
11
#2450000
b11110101 6
0%
0"
01
#2455000
b0xxxxxxxx00x00000000000 $
1%
1"
11
#2460000
b11110110 6
0%
0"
01
#2465000
b0xxxxxxxx00x0000000000 $
1%
1"
11
#2470000
b11110111 6
0%
0"
01
#2475000
b0xxxx0xxx00x000000000 $
1%
1"
11
#2480000
b11111000 6
0%
0"
01
#2485000
z+
b0zxxx0xxxx00x00000000 $
1%
1"
11
#2490000
b11111001 6
0%
0"
01
#2495000
b0x000z0xx0xxxxx0000000000 $
1%
1"
11
#2500000
b11111010 6
0%
0"
01
#2505000
b0x00z00x00xxxxx000000000 $
1%
1"
11
#2510000
b11111011 6
0%
0"
01
#2515000
0(
b0x0z00000xxxxxx00000000 $
1%
1"
11
#2520000
b11111100 6
0%
0"
01
#2525000
0(
b0x00000x00xz00000xxxxxx00000000 $
1%
1"
11
#2530000
b11111101 6
0%
0"
01
#2535000
0(
x+
b0xx00x000000xxxxxx0000000 $
1%
1"
11
#2540000
b11111110 6
0%
0"
01
#2545000
0(
z+
b0xxx0zx00000xxxxx00000000 $
1%
1"
11
#2550000
b11111111 6
0%
0"
01
#2555000
0(
b0xxxxz0x0000xxxxx00000000 $
1%
1"
11
#2560000
b100000000 6
0%
0"
01
#2565000
0(
x+
b0xxxxx00x0000xxxx00000000 $
1%
1"
11
#2570000
b100000001 6
0%
0"
01
#2575000
0(
b0xxxxxx000000xxxx00000000 $
1%
1"
11
#2580000
b100000010 6
0%
0"
01
#2585000
b0xxxxxxx00000xxxx00000000 $
1%
1"
11
#2590000
b100000011 6
0%
0"
01
#2595000
z(
b0xxxxxxxx00000xxx00z00000 $
1%
1"
11
#2600000
b100000100 6
18
0%
0"
01
#2605000
0(
b0xxxxxxxx00000xxx00000000 $
1%
1"
11
#2610000
b100000101 6
08
0%
0"
01
#2615000
0(
b0xxxxxxxx00000xxx00000000 $
1%
1"
11
#2620000
b100000110 6
0%
0"
01
#2625000
b0xxxxxxxx000000xx00000000 $
1%
1"
11
#2630000
b100000111 6
0%
0"
01
#2635000
b0xxxxxxxx000000xx00000000 $
1%
1"
11
#2640000
b100001000 6
0%
0"
01
#2645000
b0xxxxxxxx000000xx00000000 $
1%
1"
11
#2650000
b100001001 6
0%
0"
01
#2655000
b0xxxxxxxx0000000x00000000 $
1%
1"
11
#2660000
b100001010 6
0%
0"
01
#2665000
b0xxxxxxxx0000000x00000000 $
1%
1"
11
#2670000
b100001011 6
0%
0"
01
#2675000
b0xxxxxxxx00000000000000x0 $
1%
1"
11
#2680000
b100001100 6
0%
0"
01
#2685000
b0xxxxxxx0000000000000000 $
1%
1"
11
#2690000
b100001101 6
0%
0"
01
#2695000
b0x0xxxxxx0000000000000000 $
1%
1"
11
#2700000
b100001110 6
0%
0"
01
#2705000
z(
b0xx0xxxxx0000000000z00000 $
1%
1"
11
#2710000
b100001111 6
0%
0"
01
#2715000
0(
b0xx0xxxx0000000000000000 $
1%
1"
11
#2720000
b100010000 6
0%
0"
01
#2725000
z+
z(
b0xxxzxxx0000000000z00000 $
1%
1"
11
#2730000
b100010001 6
0%
0"
01
#2735000
x+
0(
b0xxxx0xx0000000000000000 $
1%
1"
11
