lab3/run003/k6_frac_N10_40nm/mac_2/MIN_ROUTE_CHAN_WIDTH/mac_2_formal.vcd
$date
	Wed Aug 30 11:06:01 2023
$end
$version
	Icarus Verilog
$end
$timescale
	1ps
$end
$scope module mac_2_autocheck_top_tb $end
$var wire 1 ! __op_clock__ $end
$var wire 1 " __prog_clock__ $end
$var wire 1 # clk $end
$var wire 32 $ gfpga_pad_GPIO_PAD [0:31] $end
$var wire 1 % pReset $end
$var wire 1 & prog_clk $end
$var wire 1 ' reset $end
$var wire 1 ( set $end
$var wire 1 ) out_3__fpga $end
$var wire 1 * out_3__benchmark $end
$var wire 1 + out_2__fpga $end
$var wire 1 , out_2__benchmark $end
$var wire 1 - out_1__fpga $end
$var wire 1 . out_1__benchmark $end
$var wire 1 / out_0__fpga $end
$var wire 1 0 out_0__benchmark $end
$var wire 1 1 ccff_tail $end
$var reg 1 2 __config_done__ $end
$var reg 1 3 __greset__ $end
$var reg 1 4 __gset__ $end
$var reg 1 5 __op_clock___reg__ $end
$var reg 1 6 __prog_clock___reg__ $end
$var reg 1 7 __prog_reset__ $end
$var reg 1 8 __prog_set_ $end
$var reg 1 9 a_0__shared_input $end
$var reg 1 : a_1__shared_input $end
$var reg 1 ; b_0__shared_input $end
$var reg 1 < b_1__shared_input $end
$var reg 13 = bit_index [12:0] $end
$var reg 1 > c_0__shared_input $end
$var reg 1 ? c_1__shared_input $end
$var reg 1 @ ccff_head $end
$var reg 13 A ibit [12:0] $end
$var reg 1 B out_0__flag $end
$var reg 1 C out_1__flag $end
$var reg 1 D out_2__flag $end
$var reg 1 E out_3__flag $end
$var reg 1 F sim_start $end
$var reg 1 G skip_bits $end
$var integer 32 H nb_error [31:0] $end
$upscope $end
$enddefinitions $end
#0
$dumpvars
b1 H
0G
1F
0E
0D
0C
0B
b100101000011 A
0@
0?
1>
b0 =
1<
0;
1:
19
18
17
06
05
04
13
02
01
10
0/
1.
0-
1,
0+
0*
1)
0(
1'
0&
1%
b1xx10xx0000x00x0x0000xx0xxx010x $
0#
0"
0!
$end
#1667
16
#3333
1&
1"
08
0%
07
#3334
b1 =
0&
0"
06
#5001
1&
1"
16
#6668
b10 =
0&
0"
06
#8335
1&
1"
16
#10002
b11 =
0&
0"
06
#11669
1&
1"
16
#13336
b100 =
0&
0"
06
#15003
1&
1"
16
#16670
b101 =
0&
0"
06
#18337
1&
1"
16
#20004
b110 =
0&
0"
06
#21671
1&
1"
16
#23338
b111 =
1@
0&
0"
06
#25005
1&
1"
16
#26672
b1000 =
0@
0&
0"
06
#28339
b1xx10xx0000x00x010000xx0xxx010x $
1&
1"
16
#30006
b1001 =
0&
0"
06
#31673
z+
b1xx10xx0000x00x0xz000xx0xxx010x $
1&
1"
16
#33340
b1010 =
0&
0"
06
#35007
0+
b1xx10xx0000x00x0x0000xx0xxx010x $
1&
1"
16
#36674
b1011 =
0&
0"
06
#38341
z-
b1xx10xx0000x00x0x00z0xx0xxx010x $
1&
1"
16
#40008
b1100 =
1@
0&
0"
06
#41675
0-
b1xx10xx0000x00x0x0000xx0xxx010x $
1&
1"
16
#43342
b1101 =
0@
0&
0"
06
#45009
b1xx10xx0000x00x0100000x0xxx010x $
1&
1"
16
#46676
b1110 =
0&
0"
06
#48343
z+
b1xx10xx0000x00x0xz000x00xxx010x $
1&
1"
16
#50010
b1111 =
0&
0"
06
#51677
0+
b1xx10xx0000x00x0x0000xx0xxx010x $
1&
1"
16
#53344
b10000 =
0&
0"
06
#55011
z-
b1xx10xx0000x00x0x00z0xx0xxx010x $
1&
1"
16
#56678
b10001 =
0&
0"
06
#58345
0-
b1xx10xx0000x00x0x0000xx0xxx010x $
1&
1"
16
#60012
b10010 =
0&
0"
06
#61679
b1xx10xx0000x00x0x00000x0xxx010x $
1&
1"
16
#63346
b10011 =
0&
0"
06
#65013
b1xx10xx0000000x0x0000x00xxx010x $
1&
1"
16
#66680
b10100 =
0&
0"
06
#68347
b1xx10xx0000x00x0x0000xx0xxx010x $
1&
1"
16
#70014
b10101 =
0&
0"
06
#71681
1&
1"
16
#73348
b10110 =
0&
0"
06
#75015
b1xx10xx0000x0000x0000xx0xxx010x $
1&
1"
16
#76682
b10111 =
1@
0&
0"
06
#78349
b1xx10xx0000x00x0x0000xx0xxx010x $
1&
1"
16
#80016
b11000 =
0@
0&
0"
06
#81683
b1xx10xx0000000x010000xx0xxx010x $
1&
1"
16
#83350
b11001 =
0&
0"
06
#85017
z+
b1xx10xx0000x00x0xz000xx0xxx010x $
1&
1"
16
#86684
b11010 =
0&
0"
06
#88351
0+
b1xx10xx0000x00x0x0000xx0xxx010x $
1&
1"
16
#90018
b11011 =
0&
0"
06
#91685
z-
b1xx10xx0000x0000x00z0xx0xxx010x $
1&
1"
16
#93352
b11100 =
0&
0"
06
#95019
0-
b1xx10xx0000x00x0x0000xx0xxx010x $
1&
1"
16
#96686
b11101 =
0&
0"
06
#98353
b1xx10xx0000x00x0x00000x0xxx010x $
1&
1"
16
#100020
b11110 =
0&
0"
06
#101687
b1xx10xx0000x00x0x0000x00xxx010x $
1&
1"
16
#103354
b11111 =
0&
0"
06
#105021
b1xx10xx0000x00x0x0000xx0xxx010x $
1&
1"
16
#106688
b100000 =
1@
0&
0"
06
#108355
1&
1"
16
#110022
b100001 =
0@
0&
0"
06
#111689
b1xx10xx0000x00x010000xx0xxx010x $
1&
1"
16
#113356
b100010 =
0&
0"
06
#115023
z+
b1xx10xx0000x00x0xz000xx0xxx010x $
1&
1"
16
#116690
b100011 =
0&
0"
06
#118357
0+
b1xx10xx0000000x0x0000xx0xxx010x $
1&
1"
16
#120024
b100100 =
0&
0"
06
#121691
z-
b1xx10xx0000x00x0x00z0xx0xxx010x $
1&
1"
16
#123358
b100101 =
0&
0"
06
#125025
0-
b1xx10xx0000x00x0x0000xx0xxx010x $
1&
1"
16
#126692
b100110 =
1@
0&
0"
06
#128359
b1xx10xx0000x0000x00000x0xxx010x $
1&
1"
16
#130026
b100111 =
0@
0&
0"
06
#131693
b1xx10xx0000x00x010000x00xxx010x $
1&
1"
16
#133360
b101000 =
0&
0"
06
#135027
z+
b1xx10xx0000x00x0xz000xx0xxx010x $
1&
1"
16
#136694
b101001 =
0&
0"
06
#138361
0+
b1xx10xx0000x00x0x0000xx0xxx010x $
1&
1"
16
#140028
b101010 =
0&
0"
06
#141695
z-
b1xx10xx0000x00x0x00z0xx0xxx010x $
1&
1"
16
#143362
b101011 =
0&
0"
06
#145029
0-
b1xx10xx0000x00x0x0000xx0xxx010x $
1&
1"
16
#146696
b101100 =
1@
0&
0"
06
#148363
b1xx10xx0000000x0x00000x0xxx010x $
1&
1"
16
#150030
b101101 =
0@
0&
0"
06
#151697
b1xx10xx0000x00x010000x00xxx010x $
1&
1"
16
#153364
b101110 =
0&
0"
06
#155031
z+
b1xx10xx0000x00x0xz000xx0xxx010x $
1&
1"
16
#156698
b101111 =
0&
0"
06
#158365
0+
b1xx10xx0000x0000x0000xx0xxx010x $
1&
1"
16
#160032
b110000 =
0&
0"
06
#161699
z-
b1xx10xx0000x00x0x00z0xx0xxx010x $
1&
1"
16
#163366
b110001 =
0&
0"
06
#165033
0-
b1xx10xx0000x00x0x0000xx0xxx010x $
1&
1"
16
#166700
b110010 =
0&
0"
06
#168367
b1xx10xx0000000x0x00000x0xxx010x $
1&
1"
16
#170034
b110011 =
0&
0"
06
#171701
b1xx10xx0000x00x0x0000x00xxx010x $
1&
1"
16
#173368
b110100 =
0&
0"
06
#175035
b1xx10xx0000x00x0x0000xx0xxx010x $
1&
1"
16
#176702
b110101 =
1@
0&
0"
06
#178369
b1xx10xx0000x0000x0000xx0xxx010x $
1&
1"
16
#180036
b110110 =
0@
0&
0"
06
#181703
b1xx10xx0000x00x010000xx0xxx010x $
1&
1"
16
#183370
b110111 =
0&
0"
06
#185037
z+
b1xx10xx0000x00x0xz000xx0xxx010x $
1&
1"
16
#186704
b111000 =
0&
0"
06
#188371
0+
b1xx10xx0000000x0x0000xx0xxx010x $
1&
1"
16
#190038
b111001 =
0&
0"
06
#191705
z-
b1xx10xx0000x00x0x00z0xx0xxx010x $
1&
1"
16
#193372
b111010 =
0&
0"
06
#195039
0-
b1xx10xx0000x00x0x0000xx0xxx010x $
1&
1"
16
#196706
b111011 =
0&
0"
06
#198373
b1xx10xx0000x0000x00000x0xxx010x $
1&
1"
16
#200040
b111100 =
0&
0"
06
#201707
b1xx10xx0000x00x0x0000x00xxx010x $
1&
1"
16
#203374
b111101 =
0&
0"
06
#205041
b1xx10xx0000x00x0x0000xx0xxx010x $
1&
1"
16
#206708
b111110 =
1@
0&
0"
06
#208375
1&
1"
16
#210042
b111111 =
0@
0&
0"
06
#211709
b1xx10xx0000x00x010000xx0xxx010x $
1&
1"
16
#213376
b1000000 =
0&
0"
06
#215043
z+
b1xx10xx0000x00x0xz000xx0xxx010x $
1&
1"
16
#216710
b1000001 =
0&
0"
06
#218377
0+
b1xx10xx0000000x0x0000xx0xxx010x $
1&
1"
16
#220044
b1000010 =
0&
0"
06
#221711
z-
b1xx10xx0000x00x0x00z0xx0xxx010x $
1&
1"
16
#223378
b1000011 =
0&
0"
06
#225045
0-
b1xx10xx0000x00x0x0000xx0xxx010x $
1&
1"
16
#226712
b1000100 =
0&
0"
06
#228379
b1xx10xx0000x0000x00000x0xxx010x $
1&
1"
16
#230046
b1000101 =
0&
0"
06
#231713
b1xx10xx0000x00x0x0000x00xxx010x $
1&
1"
16
#233380
b1000110 =
0&
0"
06
#235047
b1xx10xx0000x00x0x0000xx0xxx010x $
1&
1"
16
#236714
b1000111 =
1@
0&
0"
06
#238381
1&
1"
16
#240048
b1001000 =
0@
0&
0"
06
#241715
b1xx10xx0000x00x010000xx0xxx010x $
1&
1"
16
#243382
b1001001 =
0&
0"
06
#245049
z+
b1xx10xx0000x00x0xz000xx0xxx010x $
1&
1"
16
#246716
b1001010 =
0&
0"
06
#248383
0+
b1xx10xx0000000x0x0000xx0xxx010x $
1&
1"
16
#250050
b1001011 =
0&
0"
06
#251717
z-
b1xx10xx0000x00x0x00z0xx0xxx010x $
1&
1"
16
#253384
b1001100 =
0&
0"
06
#255051
0-
b1xx10xx0000x00x0x0000xx0xxx010x $
1&
1"
16
#256718
b1001101 =
0&
0"
06
#258385
b1xx10xx0000x0000x00000x0xxx010x $
1&
1"
16
#260052
b1001110 =
1@
0&
0"
06
#261719
bx1xx10xx0000x00x0x0000x00xxx010x $
1&
1"
16
#263386
b1001111 =
0@
0&
0"
06
#265053
b1xx10xx0000x00x010000xx0xxx010x $
1&
1"
16
#266720
b1010000 =
0&
0"
06
#268387
z+
b1xx10xx0000x00x0xz000xx0xxx010x $
1&
1"
16
#270054
b1010001 =
0&
0"
06
#271721
0+
bx1xx10xx0000x00x0x0000xx0xxx010x $
1&
1"
16
#273388
b1010010 =
0&
0"
06
#275055
z-
bx1xx10xx0000x00x0x00z0xx0xxx010x $
1&
1"
16
#276722
b1010011 =
0&
0"
06
#278389
0-
bx1xx10xx0000000x0x0000xx0xxx010x $
1&
1"
16
#280056
b1010100 =
0&
0"
06
#281723
b1xx10xx0000x00x0x00000x0xxx010x $
1&
1"
16
#283390
b1010101 =
1@
0&
0"
06
#285057
b0xxx10xx0000x00x0x0000x00xxx010x $
1&
1"
16
#286724
b1010110 =
0@
0&
0"
06
#288391
b0xxx10xx0000x000010000xx0xxx010x $
1&
1"
16
#290058
b1010111 =
0&
0"
06
#291725
z+
b1xx10xx0000x00x0xz000xx0xxx010x $
1&
1"
16
#293392
b1011000 =
0&
0"
06
#295059
0+
b1xx10xx0000x00x0x0000xx0xxx010x $
1&
1"
16
#296726
b1011001 =
0&
0"
06
#298393
z-
b1xx10xx0000x00x0x00z0xx0xxx010x $
1&
1"
16
#300060
b1011010 =
0&
0"
06
#301727
0-
b0x1x10xx0000000x0x0000xx0xxx010x $
1&
1"
16
#303394
b1011011 =
0&
0"
06
#305061
b0xxx10xx0000x00x0x00000x0xxx010x $
1&
1"
16
#306728
b1011100 =
0&
0"
06
#308395
b0xxx10xx0000x00x0x0000x00xxx010x $
1&
1"
16
#310062
b1011101 =
0&
0"
06
#311729
b0x1x10xx0000x0000x0000xx0xxx010x $
1&
1"
16
#313396
b1011110 =
0&
0"
06
#315063
bx1x10xx0000x00x0x0000xx0xxx010x $
1&
1"
16
#316730
b1011111 =
0&
0"
06
#318397
b0x1x10xx0000x00x0x0000xx0xxx010x $
1&
1"
16
#320064
b1100000 =
1@
0&
0"
06
#321731
b0xxx10xx0000x00x0x0000xx0xxx010x $
1&
1"
16
#323398
b1100001 =
0@
0&
0"
06
#325065
bx010xx0000000x010000xx0xxx010x $
1&
1"
16
#326732
b1100010 =
0&
0"
06
#328399
z+
bx1010xx0000x00x0xz000xx0xxx010x $
1&
1"
16
#330066
b1100011 =
0&
0"
06
#331733
0+
bx1x10xx0000x00x0x0000xx0xxx010x $
1&
1"
16
#333400
b1100100 =
0&
0"
06
#335067
z-
bx1x10xx0000x0000x00z0xx0xxx010x $
1&
1"
16
#336734
b1100101 =
0&
0"
06
#338401
0-
bx1x10xx0000x00x0x0000xx0xxx010x $
1&
1"
16
#340068
b1100110 =
0&
0"
06
#341735
bx10x0xx0000x00x0x00000x0xxx010x $
1&
1"
16
#343402
b1100111 =
1@
0&
0"
06
#345069
b0x10x0xx0000x00x0x0000x00xxx010x $
1&
1"
16
#346736
b1101000 =
0@
0&
0"
06
#348403
b0x1xx0xx0000x00x010000xx0xxx010x $
1&
1"
16
#350070
b1101001 =
0&
0"
06
#351737
z+
b0x1xx0xx0000x00x0xz000xx0xxx010x $
1&
1"
16
#353404
b1101010 =
0&
0"
06
#355071
0+
b0xxxx0xx0000x00x0x0000xx0xxx010x $
1&
1"
16
#356738
b1101011 =
0&
0"
06
#358405
z-
b0xxxx0xx0000x00x0x00z0xx0xxx010x $
1&
1"
16
#360072
b1101100 =
1@
0&
0"
06
#361739
0-
b0xxxxxxx0000000x0x0000xx0xxx010x $
1&
1"
16
#363406
b1101101 =
0@
0&
0"
06
#365073
bx1xx0xx0000x00x0100000x0xxx010x $
1&
1"
16
#366740
b1101110 =
0&
0"
06
#368407
z+
b0x1x10xx0000x00x0xz000x00xxx010x $
1&
1"
16
#370074
b1101111 =
0&
0"
06
#371741
0+
b0x1x1xxx0000x0000x0000xx0xxx010x $
1&
1"
16
#373408
b1110000 =
0&
0"
06
#375075
z-
b1101xxx0000x00x0x00z0xx0xxx010x $
1&
1"
16
#376742
b1110001 =
0&
0"
06
#378409
0-
b11010xx0000x00x0x0000xx0xxx010x $
1&
1"
16
#380076
b1110010 =
0&
0"
06
#381743
b110100x0000x00x0x00000x0xxx010x $
1&
1"
16
#383410
b1110011 =
0&
0"
06
#385077
b0x10100x0000000x0x0000x00xxx010x $
1&
1"
16
#386744
b1110100 =
0&
0"
06
#388411
b1x01x0x0000x00x0x0000xx0xxx010x $
1&
1"
16
#390078
b1110101 =
0&
0"
06
#391745
b0xx01x0x0000x00x0x0000xx0xxx010x $
1&
1"
16
#393412
b1110110 =
0&
0"
06
#395079
b0x10xx0x0000x0000x0000xx0xxx010x $
1&
1"
16
#396746
b1110111 =
1@
0&
0"
06
#398413
b0x10xx0x0000x00x0x0000xx0xxx010x $
1&
1"
16
#400080
b1111000 =
0@
0&
0"
06
#401747
b0x10xxxx0000000x010000xx0xxx010x $
1&
1"
16
#403414
b1111001 =
0&
0"
06
#405081
z+
b0xxx1x000000x00x0xz000xx0xxx010x $
1&
1"
16
#406748
b1111010 =
0&
0"
06
#408415
0+
b0xx01x000000x00x0x0000xx0xxx010x $
1&
1"
16
#410082
b1111011 =
0&
0"
06
#411749
z-
b0xx01x000000x0000x00z0xx0xxx010x $
1&
1"
16
#413416
b1111100 =
0&
0"
06
#415083
0-
b0xxx1x000000x00x0x0000xx0xxx010x $
1&
1"
16
#416750
b1111101 =
0&
0"
06
#418417
b0xxx100x0000x00x0x00000x0xxx010x $
1&
1"
16
#420084
b1111110 =
1@
0&
0"
06
#421751
b0xxx10000000x00x0x0000x00xxx010x $
1&
1"
16
#423418
b1111111 =
0@
0&
0"
06
#425085
b0xxxx0000000x00x010000xx0xxx010x $
1&
1"
16
#426752
b10000000 =
0&
0"
06
#428419
z+
b0xx0x00x0000x00x0xz000xx0xxx010x $
1&
1"
16
#430086
b10000001 =
0&
0"
06
#431753
0+
b0xx0x00x0000x00x0x0000xx0xxx010x $
1&
1"
16
#433420
b10000010 =
0&
0"
06
#435087
z-
b0x10x00x0000x00x0x00z0xx0xxx010x $
1&
1"
16
#436754
b10000011 =
0&
0"
06
#438421
0-
b0x10x00x0000000x0x0000xx0xxx010x $
1&
1"
16
#440088
b10000100 =
0&
0"
06
#441755
b0x10x00x0000x00x0x00000x0xxx010x $
1&
1"
16
#443422
b10000101 =
1@
0&
0"
06
#445089
bx11xx00x0000x00x0x0000x00xxx010x $
1&
1"
16
#446756
b10000110 =
0@
0&
0"
06
#448423
b110x00x0000x000010000xx0xxx010x $
1&
1"
16
#450090
b10000111 =
0&
0"
06
#451757
z+
b110x00x0000x00x0xz000xx0xxx010x $
1&
1"
16
#453424
b10001000 =
0&
0"
06
#455091
0+
b1xx1x000000x00x0x0000xx0xxx010x $
1&
1"
16
#456758
b10001001 =
0&
0"
06
#458425
z-
b1xx1x000000x00x0x00z0xx0xxx010x $
1&
1"
16
#460092
b10001010 =
0&
0"
06
#461759
0-
b1xx1x000000000x0x0000xx0xxx010x $
1&
1"
16
#463426
b10001011 =
0&
0"
06
#465093
b1xxx00x0000x00x0x00000x0xxx010x $
1&
1"
16
#466760
b10001100 =
0&
0"
06
#468427
b0xxxx00x0000x00x0x0000x00xxx010x $
1&
1"
16
#470094
b10001101 =
0&
0"
06
#471761
b0xxxx00x0000x0000x0000xx0xxx010x $
1&
1"
16
#473428
b10001110 =
0&
0"
06
#475095
b1xx10xx0000x00x0x0000xx0xxx010x $
1&
1"
16
#476762
b10001111 =
0&
0"
06
#478429
b1x010xx0000x00x0x0000xx0xxx010x $
1&
1"
16
#480096
b10010000 =
1@
0&
0"
06
#481763
1&
1"
16
#483430
b10010001 =
0@
0&
0"
06
#485097
b1xx100x0000000x010000xx0xxx010x $
1&
1"
16
#486764
b10010010 =
0&
0"
06
#488431
z+
b1xx10000000x00x0xz000xx0xxx010x $
1&
1"
16
#490098
b10010011 =
0&
0"
06
#491765
0+
b1xx10000000x00x0x0000xx0xxx010x $
1&
1"
16
#493432
b10010100 =
0&
0"
06
#495099
z-
b11x1xx00000x0000x00z0xx0xxx010x $
1&
1"
16
#496766
b10010101 =
0&
0"
06
#498433
0-
b0x1xxxx00000x00x0x0000xx0xxx010x $
1&
1"
16
#500100
b10010110 =
1@
0&
0"
06
#501767
b0x1xxxx00000x00x0x00000x0xxx010x $
1&
1"
16
#503434
b10010111 =
0@
0&
0"
06
#505101
b0x10xxxx0000x00x010000x00xxx010x $
1&
1"
16
#506768
b10011000 =
0&
0"
06
#508435
z+
b0x10xxx00000x00x0xz000xx0xxx010x $
1&
1"
16
#510102
b10011001 =
0&
0"
06
#511769
0+
b0x10xx000000x00x0x0000xx0xxx010x $
1&
1"
16
#513436
b10011010 =
0&
0"
06
#515103
z-
b0x10xxx00000x00x0x00z0xx0xxx010x $
1&
1"
16
#516770
b10011011 =
0&
0"
06
#518437
0-
b0xx0x0x00000x00x0x0000xx0xxx010x $
1&
1"
16
#520104
b10011100 =
1@
0&
0"
06
#521771
b0xx0x0x00000000x0x00000x0xxx010x $
1&
1"
16
#523438
b10011101 =
0@
0&
0"
06
#525105
b0x101xx00000x00x010000x00xxx010x $
1&
1"
16
#526772
b10011110 =
0&
0"
06
#528439
z+
b110xxx00000x00x0xz000xx0xxx010x $
1&
1"
16
#530106
b10011111 =
0&
0"
06
#531773
0+
b110xxx00000x0000x0000xx0xxx010x $
1&
1"
16
#533440
b10100000 =
0&
0"
06
#535107
z-
b11x1x0x0000x00x0x00z0xx0xxx010x $
1&
1"
16
#536774
b10100001 =
0&
0"
06
#538441
0-
b1101x0x0000x00x0x0000xx0xxx010x $
1&
1"
16
#540108
b10100010 =
0&
0"
06
#541775
b0xx01x0x0000000x0x00000x0xxx010x $
1&
1"
16
#543442
b10100011 =
0&
0"
06
#545109
b0xxx100x0000x00x0x0000x00xxx010x $
1&
1"
16
#546776
b10100100 =
0&
0"
06
#548443
b0x1x100x0000x00x0x0000xx0xxx010x $
1&
1"
16
#550110
b10100101 =
0&
0"
06
#551777
b11x100x0000x0000x0000xx0xxx010x $
1&
1"
16
#553444
b10100110 =
0&
0"
06
#555111
b11xxx000000x00x0x0000xx0xxx010x $
1&
1"
16
#556778
b10100111 =
1@
0&
0"
06
#558445
b110xx000000x00x0x0000xx0xxx010x $
1&
1"
16
#560112
b10101000 =
0@
0&
0"
06
#561779
b110xx000000000x010000xx0xxx010x $
1&
1"
16
#563446
b10101001 =
0&
0"
06
#565113
z+
b1x0xxxx0000x00x0xz000xx0xxx010x $
1&
1"
16
#566780
b10101010 =
0&
0"
06
#568447
0+
bx1x0xxxx0000x00x0x0000xx0xxx010x $
1&
1"
16
#570114
b10101011 =
0&
0"
06
#571781
z-
bx110xx0x0000x0000x00z0xx0xxx010x $
1&
1"
16
#573448
b10101100 =
0&
0"
06
#575115
0-
bx110x0xx0000x00x0x0000xx0xxx010x $
1&
1"
16
#576782
b10101101 =
0&
0"
06
#578449
bx1010xx0000x00x0x00000x0xxx010x $
1&
1"
16
#580116
b10101110 =
0&
0"
06
#581783
b0x10x0xx0000x00x0x0000x00xxx010x $
1&
1"
16
#583450
b10101111 =
0&
0"
06
#585117
b0x10x0x00000x00x0x0000xx0xxx010x $
1&
1"
16
#586784
b10110000 =
1@
0&
0"
06
#588451
b0x10x0x00000x00x0x0000xx0xxx010x $
1&
1"
16
#590118
b10110001 =
0@
0&
0"
06
#591785
bx1xx0x00000x00x010000xx0xxx010x $
1&
1"
16
#593452
b10110010 =
0&
0"
06
#595119
z+
bx1xx0x00000x00x0xz000xx0xxx010x $
1&
1"
16
#596786
b10110011 =
0&
0"
06
#598453
0+
bx0000000000x0x0000xx0xxx010x $
1&
1"
16
#600120
b10110100 =
0&
0"
06
#601787
z-
b1xxx0000000x00x0x00z0xx0xxx010x $
1&
1"
16
#603454
b10110101 =
1@
0&
0"
06
#605121
0-
b0xxxx0000000x00x0x0000xx0xxx010x $
1&
1"
16
#606788
b10110110 =
0@
0&
0"
06
#608455
bx000000x0000100000x0xxx010x $
1&
1"
16
#610122
b10110111 =
0&
0"
06
#611789
z+
bx000000x00x0xz000x00xxx010x $
1&
1"
16
#613456
b10111000 =
0&
0"
06
#615123
0+
bx000000x00x0x0000xx0xxx010x $
1&
1"
16
#616790
b10111001 =
0&
0"
06
#618457
z-
bx0xx000000x00x0x00z0xx0xxx010x $
1&
1"
16
#620124
b10111010 =
0&
0"
06
#621791
0-
bx10x0x00000x00x0x0000xx0xxx010x $
1&
1"
16
#623458
b10111011 =
0&
0"
06
#625125
bx0x00x0000x00x0x00000x0xxx010x $
1&
1"
16
#626792
b10111100 =
0&
0"
06
#628459
bx1xxx0xx0000000x0x0000x00xxx010x $
1&
1"
16
#630126
b10111101 =
0&
0"
06
#631793
b1xxxxxx0000x00x0x0000xx0xxx010x $
1&
1"
16
#633460
b10111110 =
1@
0&
0"
06
#635127
b1xxxxxx0000x00x0x0000xx0xxx010x $
1&
1"
16
#636794
b10111111 =
0@
0&
0"
06
#638461
b11x1xx00000x000010000xx0xxx010x $
1&
1"
16
#640128
b11000000 =
0&
0"
06
#641795
z+
b1x0xxx00000x00x0xz000xx0xxx010x $
1&
1"
16
#643462
b11000001 =
1@
0&
0"
06
#645129
0+
b1x01xx00000000x0x0000xx0xxx010x $
1&
1"
16
#646796
b11000010 =
0@
0&
0"
06
#648463
z-
b110100x0000x00x0100z0xx0xxx010x $
1&
1"
16
#650130
b11000011 =
0&
0"
06
#651797
0-
z+
b1101x0x0000x00x0xz000xx0xxx010x $
1&
1"
16
#653464
b11000100 =
0&
0"
06
#655131
0+
b0x101x000000x0000x00000x0xxx010x $
1&
1"
16
#656798
b11000101 =
0&
0"
06
#658465
z-
bx10100x0000x00x0x00z0x00xxx010x $
1&
1"
16
#660132
b11000110 =
0&
0"
06
#661799
0-
b0x1010000000x00x0x0000xx0xxx010x $
1&
1"
16
#663466
b11000111 =
0&
0"
06
#665133
b110x0000000x00x0x00000x0xxx010x $
1&
1"
16
#666800
b11001000 =
0&
0"
06
#668467
b11xx0000000x00x0x0000x00xxx010x $
1&
1"
16
#670134
b11001001 =
0&
0"
06
#671801
b11xx0000000x00x0x0000xx0xxx010x $
1&
1"
16
#673468
b11001010 =
0&
0"
06
#675135
b1xxx00x0000000x0x0000xx0xxx010x $
1&
1"
16
#676802
b11001011 =
0&
0"
06
#678469
b0xxx100x0000x00x0x0000xx0xxx010x $
1&
1"
16
#680136
b11001100 =
1@
0&
0"
06
#681803
b1xx100x0000x00x0x0000xx0xxx010x $
1&
1"
16
#683470
b11001101 =
0@
0&
0"
06
#685137
b0xxxx00x00000000010000xx0xxx010x $
1&
1"
16
#686804
b11001110 =
0&
0"
06
#688471
z+
b1xx10xx0000x00x0xz000xx0xxx010x $
1&
1"
16
#690138
b11001111 =
0&
0"
06
#691805
0+
bx11x10xx0000x00x0x0000xx0xxx010x $
1&
1"
16
#693472
b11010000 =
0&
0"
06
#695139
z-
bx1x010xx0000x0000x00z0xx0xxx010x $
1&
1"
16
#696806
b11010001 =
0&
0"
06
#698473
0-
bx1xx10xx0000x00x0x0000xx0xxx010x $
1&
1"
16
#700140
b11010010 =
0&
0"
06
#701807
bx0100x0000x00x0x00000x0xxx010x $
1&
1"
16
#703474
b11010011 =
0&
0"
06
#705141
bx010000000x00x0x0000x00xxx010x $
1&
1"
16
#706808
b11010100 =
0&
0"
06
#708475
bx101x000000x00x0x0000xx0xxx010x $
1&
1"
16
#710142
b11010101 =
0&
0"
06
#711809
bx1101x000000x00x0x0000xx0xxx010x $
1&
1"
16
#713476
b11010110 =
0&
0"
06
#715143
b110xx000000x00x0x0000xx0xxx010x $
1&
1"
16
#716810
b11010111 =
1@
0&
0"
06
#718477
bx110xxx00000x00x0x0000xx0xxx010x $
1&
1"
16
#720144
b11011000 =
0@
0&
0"
06
#721811
b110xx000000000x010000xx0xxx010x $
1&
1"
16
#723478
b11011001 =
0&
0"
06
#725145
z+
b1x0xx000000x00x0xz000xx0xxx010x $
1&
1"
16
#726812
b11011010 =
0&
0"
06
#728479
0+
bx1xx1x000000x00x0x0000xx0xxx010x $
1&
1"
16
#730146
b11011011 =
0&
0"
06
#731813
z-
bx11xx00x0000x0000x00z0xx0xxx010x $
1&
1"
16
#733480
b11011100 =
0&
0"
06
#735147
0-
b11xxx0x0000x00x0x0000xx0xxx010x $
1&
1"
16
#736814
b11011101 =
0&
0"
06
#738481
bx11x10000000x00x0x00000x0xxx010x $
1&
1"
16
#740148
b11011110 =
1@
0&
0"
06
#741815
b11xx00x0000x00x0x0000x00xxx010x $
1&
1"
16
#743482
b11011111 =
0@
0&
0"
06
#745149
b0x10xx000000x00x010000xx0xxx010x $
1&
1"
16
#746816
b11100000 =
0&
0"
06
#748483
z+
bx101x0x0000x00x0xz000xx0xxx010x $
1&
1"
16
#750150
b11100001 =
0&
0"
06
#751817
0+
bx1x100x0000x00x0x0000xx0xxx010x $
1&
1"
16
#753484
b11100010 =
0&
0"
06
#755151
z-
b0x1x1x0x0000x00x0x00z0xx0xxx010x $
1&
1"
16
#756818
b11100011 =
0&
0"
06
#758485
0-
bx11x10000000000x0x0000xx0xxx010x $
1&
1"
16
#760152
b11100100 =
0&
0"
06
#761819
b0x1xx00x0000x00x0x00000x0xxx010x $
1&
1"
16
#763486
b11100101 =
1@
0&
0"
06
#765153
b0xx0x00x0000x00x0x0000x00xxx010x $
1&
1"
16
#766820
b11100110 =
0@
0&
0"
06
#768487
bx1xx100x0000x000010000xx0xxx010x $
1&
1"
16
#770154
b11100111 =
0&
0"
06
#771821
z+
bx1xxx00x0000x00x0xz000xx0xxx010x $
1&
1"
16
#773488
b11101000 =
0&
0"
06
#775155
0+
bx1xxx0000000x00x0x0000xx0xxx010x $
1&
1"
16
#776822
b11101001 =
0&
0"
06
#778489
z-
bx10x0x00000x00x0x00z0xx0xxx010x $
1&
1"
16
#780156
b11101010 =
0&
0"
06
#781823
0-
bx0x0000000000x0x0000xx0xxx010x $
1&
1"
16
#783490
b11101011 =
0&
0"
06
#785157
b0xx0x0000000x00x0x00000x0xxx010x $
1&
1"
16
#786824
b11101100 =
0&
0"
06
#788491
bx1x0x0000000x00x0x0000x00xxx010x $
1&
1"
16
#790158
b11101101 =
0&
0"
06
#791825
bx110xx000000x0000x0000xx0xxx010x $
1&
1"
16
#793492
b11101110 =
1@
0&
0"
06
#795159
b1x0xx000000x00x0x0000xx0xxx010x $
1&
1"
16
#796826
b11101111 =
0@
0&
0"
06
#798493
b1xx1x0x0000x00x010000xx0xxx010x $
1&
1"
16
#800160
b11110000 =
0&
0"
06
#801827
z+
b1xxx0x00000x00x0xz000xx0xxx010x $
1&
1"
16
#803494
b11110001 =
0&
0"
06
#805161
0+
bx1x0xx000000000x0x0000xx0xxx010x $
1&
1"
16
#806828
b11110010 =
0&
0"
06
#808495
z-
bx1xxxx000000x00x0x00z0xx0xxx010x $
1&
1"
16
#810162
b11110011 =
0&
0"
06
#811829
0-
bx1xxxx000000x00x0x0000xx0xxx010x $
1&
1"
16
#813496
b11110100 =
0&
0"
06
#815163
b0xxxxx000000x0000x00000x0xxx010x $
1&
1"
16
#816830
b11110101 =
0&
0"
06
#818497
bx1xx10000000x00x0x0000x00xxx010x $
1&
1"
16
#820164
b11110110 =
0&
0"
06
