lab12/configuration_frame/run002/k4_N4_tileable_40nm/and2_latch/MIN_ROUTE_CHAN_WIDTH/and2_latch_formal.vcd
$date
	Wed Aug 16 14:33:30 2023
$end
$version
	Icarus Verilog
$end
$timescale
	1ps
$end
$scope module and2_latch_autocheck_top_tb $end
$var wire 1 ! __op_clock__ $end
$var wire 1 " __prog_clock__ $end
$var wire 1 # clk $end
$var wire 1 $ enable $end
$var wire 32 % gfpga_pad_GPIO_PAD [0:31] $end
$var wire 1 & reset $end
$var wire 1 ' set $end
$var wire 1 ( d_fpga $end
$var wire 1 ) d_benchmark $end
$var wire 1 * c_fpga $end
$var wire 1 + c_benchmark $end
$var reg 1 , __config_done__ $end
$var reg 1 - __greset__ $end
$var reg 1 . __gset__ $end
$var reg 1 / __op_clock___reg__ $end
$var reg 1 0 __prog_clock___reg__ $end
$var reg 1 1 __prog_reset__ $end
$var reg 1 2 __prog_set_ $end
$var reg 1 3 a_shared_input $end
$var reg 14 4 address [0:13] $end
$var reg 1 5 b_shared_input $end
$var reg 11 6 bit_index [10:0] $end
$var reg 1 7 c_flag $end
$var reg 1 8 d_flag $end
$var reg 1 9 data_in $end
$var reg 1 : enable_reg__ $end
$var reg 1 ; sim_start $end
$var integer 32 < nb_error [31:0] $end
$upscope $end
$enddefinitions $end
#0
$dumpvars
b1 <
1;
0:
09
08
07
b0 6
15
b0 4
03
12
11
00
0/
0.
1-
0,
0+
x*
x)
x(
0'
1&
bx %
1$
0#
0"
0!
$end
#5000
10
#7500
0$
1:
#10000
b1 6
19
00
02
01
#12500
bx0xxxxxxxxxxxxxxx %
1$
0:
#15000
1"
10
#17500
0$
1:
#20000
b10 6
b1 4
0"
00
#22500
bx0xxxxxxx0xxxxxxx %
1$
0:
#25000
1"
10
#27500
0$
1:
#30000
b11 6
b10 4
0"
00
#32500
b0xxxxxxxxxxxxxxx0xxxxxxx0xxxxxxx %
1$
0:
#35000
1"
10
#37500
0$
1:
#40000
b100 6
b11 4
09
0"
00
#42500
1$
0:
#45000
1"
10
#47500
0$
1:
#50000
b101 6
b100 4
0"
00
#52500
1$
0:
#55000
1"
10
#57500
0$
1:
#60000
b110 6
b101 4
0"
00
#62500
1$
0:
#65000
1"
10
#67500
0$
1:
#70000
b111 6
b110 4
0"
00
#72500
1$
0:
#75000
1"
10
#77500
0$
1:
#80000
b1000 6
b1000 4
19
0"
00
#82500
b0xxxxxxx0xxxxxxx0xxxxxxx0xxxxxxx %
1$
0:
#85000
1"
10
#87500
0$
1:
#90000
b1001 6
b1001 4
09
0"
00
#92500
1$
0:
#95000
1"
10
#97500
0$
1:
#100000
b1010 6
b1010 4
0"
00
#102500
1$
0:
#105000
1"
10
#107500
0$
1:
#110000
b1011 6
b1100 4
0"
00
#112500
1$
0:
#115000
1"
10
#117500
0$
1:
#120000
b1100 6
b1101 4
0"
00
#122500
1$
0:
#125000
1"
10
#127500
0$
1:
#130000
b1101 6
b1110 4
0"
00
#132500
1$
0:
#135000
1"
10
#137500
0$
1:
#140000
b1110 6
b10011 4
0"
00
#142500
1$
0:
#145000
1"
10
#147500
0$
1:
#150000
b1111 6
b100011 4
0"
00
#152500
1$
0:
#155000
1"
10
#157500
0$
1:
#160000
b10000 6
b1000011 4
0"
00
#162500
1$
0:
#165000
1"
10
#167500
0$
1:
#170000
b10001 6
b1100011 4
0"
00
#172500
1$
0:
#175000
1"
10
#177500
0$
1:
#180000
b10010 6
b10000011 4
19
0"
00
#182500
1$
0:
#185000
1"
10
#187500
0$
1:
#190000
b10011 6
b10000101 4
09
0"
00
#192500
1$
0:
#195000
1"
10
#197500
0$
1:
#200000
b10100 6
b10001100 4
0"
00
#202500
1$
0:
#205000
1"
10
#207500
0$
1:
#210000
b10101 6
b10001101 4
19
0"
00
#212500
1$
0:
#215000
1"
10
#217500
0$
1:
#220000
b10110 6
b10001110 4
09
0"
00
#222500
1$
0:
#225000
1"
10
#227500
0$
1:
#230000
b10111 6
b10010011 4
0"
00
#232500
1$
0:
#235000
1"
10
#237500
0$
1:
#240000
b11000 6
b10100011 4
0"
00
#242500
1$
0:
#245000
1"
10
#247500
0$
1:
#250000
b11001 6
b11000011 4
0"
00
#252500
1$
0:
#255000
1"
10
#257500
0$
1:
#260000
b11010 6
b11100011 4
0"
00
#262500
1$
0:
#265000
1"
10
#267500
0$
1:
#270000
b11011 6
b100000011 4
0"
00
#272500
1$
0:
#275000
1"
10
#277500
0$
1:
#280000
b11100 6
b100000100 4
0"
00
#282500
1$
0:
#285000
1"
10
#287500
0$
1:
#290000
b11101 6
b100000101 4
0"
00
#292500
1$
0:
#295000
1"
10
#297500
0$
1:
#300000
b11110 6
b100000110 4
0"
00
#302500
1$
0:
#305000
1"
10
#307500
0$
1:
#310000
b11111 6
b100001001 4
0"
00
#312500
1$
0:
#315000
1"
10
#317500
0$
1:
#320000
b100000 6
b100001010 4
0"
00
#322500
1$
0:
#325000
1"
10
#327500
0$
1:
#330000
b100001 6
b100001100 4
0"
00
#332500
1$
0:
#335000
1"
10
#337500
0$
1:
#340000
b100010 6
b100001101 4
0"
00
#342500
1$
0:
#345000
1"
10
#347500
0$
1:
#350000
b100011 6
b100001110 4
0"
00
#352500
1$
0:
#355000
1"
10
#357500
0$
1:
#360000
b100100 6
b100010011 4
0"
00
#362500
1$
0:
#365000
1"
10
#367500
0$
1:
#370000
b100101 6
b100100011 4
0"
00
#372500
1$
0:
#375000
1"
10
#377500
0$
1:
#380000
b100110 6
b101000011 4
0"
00
#382500
1$
0:
#385000
1"
10
#387500
0$
1:
#390000
b100111 6
b101100011 4
0"
00
#392500
1$
0:
#395000
1"
10
#397500
0$
1:
#400000
b101000 6
b110000011 4
19
0"
00
#402500
1$
0:
#405000
1"
10
#407500
0$
1:
#410000
b101001 6
b110010011 4
0"
00
#412500
1$
0:
#415000
1"
10
#417500
0$
1:
#420000
b101010 6
b110100011 4
09
0"
00
#422500
1$
0:
#425000
1"
10
#427500
0$
1:
#430000
b101011 6
b111000011 4
0"
00
#432500
1$
0:
#435000
1"
10
#437500
0$
1:
#440000
b101100 6
b111100011 4
0"
00
#442500
1$
0:
#445000
1"
10
#447500
0$
1:
#450000
b101101 6
b1000000011 4
0"
00
#452500
1$
0:
#455000
1"
10
#457500
0$
1:
#460000
b101110 6
b1000000100 4
19
0"
00
#462500
1$
0:
#465000
1"
10
#467500
0$
1:
#470000
b101111 6
b1000000101 4
09
0"
00
#472500
1$
0:
#475000
1"
10
#477500
0$
1:
#480000
b110000 6
b1000000110 4
0"
00
#482500
1$
0:
#485000
1"
10
#487500
0$
1:
#490000
b110001 6
b1000001001 4
0"
00
#492500
1$
0:
#495000
1"
10
#497500
0$
1:
#500000
b110010 6
b1000001010 4
0"
00
#502500
1$
0:
#505000
1"
10
#507500
0$
1:
#510000
b110011 6
b1000001100 4
0"
00
#512500
1$
0:
#515000
1"
10
#517500
0$
1:
#520000
b110100 6
b1000001101 4
0"
00
#522500
1$
0:
#525000
1"
10
#527500
0$
1:
#530000
b110101 6
b1000001110 4
0"
00
#532500
1$
0:
#535000
1"
10
#537500
0$
1:
#540000
b110110 6
b1010000011 4
19
0"
00
#542500
1$
0:
#545000
1"
10
#547500
0$
1:
#550000
b110111 6
b1010000101 4
09
0"
00
#552500
1$
0:
#555000
1"
10
#557500
0$
1:
#560000
b111000 6
b1010001100 4
19
0"
00
#562500
1$
0:
#565000
1"
10
#567500
0$
1:
#570000
b111001 6
b1010001101 4
09
0"
00
#572500
1$
0:
#575000
1"
10
#577500
0$
1:
#580000
b111010 6
b1100000011 4
0"
00
#582500
1$
0:
#585000
1"
10
#587500
0$
1:
#590000
b111011 6
b1100000101 4
0"
00
#592500
1$
0:
#595000
1"
10
#597500
0$
1:
#600000
b111100 6
b1100001100 4
0"
00
#602500
1$
0:
#605000
1"
10
#607500
0$
1:
#610000
b111101 6
b1100001101 4
0"
00
#612500
1$
0:
#615000
1"
10
#617500
0$
1:
#620000
b111110 6
b1100001110 4
0"
00
#622500
1$
0:
#625000
1"
10
#627500
0$
1:
#630000
b111111 6
b1110000011 4
0"
00
#632500
1$
0:
#635000
1"
10
#637500
0$
1:
#640000
b1000000 6
b10000000000 4
19
0"
00
#642500
b0xxxxxxx0xxxxxxx0xxx0xxx0xxxxxxx %
1$
0:
#645000
1"
10
#647500
0$
1:
#650000
b1000001 6
b10000000001 4
0"
00
#652500
b0xxxxxxx0xxxxxxx0xxx0xxx0xxx0xxx %
1$
0:
#655000
1"
10
#657500
0$
1:
#660000
b1000010 6
b10000000010 4
0"
00
#662500
b0xxx0xxx0xxxxxxx0xxx0xxx0xxx0xxx %
1$
0:
#665000
1"
10
#667500
0$
1:
#670000
b1000011 6
b10000000011 4
09
0"
00
#672500
1$
0:
#675000
1"
10
#677500
0$
1:
#680000
b1000100 6
b10000000100 4
0"
00
#682500
1$
0:
#685000
1"
10
#687500
0$
1:
#690000
b1000101 6
b10000000101 4
0"
00
#692500
1$
0:
#695000
1"
10
#697500
0$
1:
#700000
b1000110 6
b10000000110 4
0"
00
#702500
1$
0:
#705000
1"
10
#707500
0$
1:
#710000
b1000111 6
b10000001000 4
0"
00
#712500
1$
0:
#715000
1"
10
#717500
0$
1:
#720000
b1001000 6
b10000001001 4
0"
00
#722500
1$
0:
#725000
1"
10
#727500
0$
1:
#730000
b1001001 6
b10000001010 4
0"
00
#732500
1$
0:
#735000
1"
10
#737500
0$
1:
#740000
b1001010 6
b10000001100 4
0"
00
#742500
1$
0:
#745000
1"
10
#747500
0$
1:
#750000
b1001011 6
b10000001101 4
0"
00
#752500
1$
0:
#755000
1"
10
#757500
0$
1:
#760000
b1001100 6
b10000001110 4
0"
00
#762500
1$
0:
#765000
1"
10
#767500
0$
1:
#770000
b1001101 6
b10010000011 4
0"
00
#772500
1$
0:
#775000
1"
10
#777500
0$
1:
#780000
b1001110 6
b10010000101 4
0"
00
#782500
1$
0:
#785000
1"
10
#787500
0$
1:
#790000
b1001111 6
b10010001100 4
0"
00
#792500
1$
0:
#795000
1"
10
#797500
0$
1:
#800000
b1010000 6
b10010001101 4
0"
00
#802500
1$
0:
#805000
1"
10
#807500
0$
1:
#810000
b1010001 6
b10010001110 4
0"
00
#812500
1$
0:
#815000
1"
10
#817500
0$
1:
#820000
b1010010 6
b10100000011 4
0"
00
#822500
1$
0:
#825000
1"
10
#827500
0$
1:
#830000
b1010011 6
b10100000101 4
0"
00
#832500
1$
0:
#835000
1"
10
#837500
0$
1:
#840000
b1010100 6
b10100001100 4
0"
00
#842500
1$
0:
#845000
1"
10
#847500
0$
1:
#850000
b1010101 6
b10100001101 4
0"
00
#852500
1$
0:
#855000
1"
10
#857500
0$
1:
#860000
b1010110 6
b10100001110 4
0"
00
#862500
1$
0:
#865000
1"
10
#867500
0$
1:
#870000
b1010111 6
b10110000011 4
0"
00
#872500
1$
0:
#875000
1"
10
#877500
0$
1:
#880000
b1011000 6
b11000000100 4
0"
00
#882500
1$
0:
#885000
1"
10
#887500
0$
1:
#890000
b1011001 6
b11000000101 4
0"
00
#892500
1$
0:
#895000
1"
10
#897500
0$
1:
#900000
b1011010 6
b11000000110 4
0"
00
#902500
1$
0:
#905000
1"
10
#907500
0$
1:
#910000
b1011011 6
b11000001001 4
0"
00
#912500
1$
0:
#915000
1"
10
#917500
0$
1:
#920000
b1011100 6
b11000001010 4
0"
00
#922500
1$
0:
#925000
1"
10
#927500
0$
1:
#930000
b1011101 6
b11000001100 4
0"
00
#932500
1$
0:
#935000
1"
10
#937500
0$
1:
#940000
b1011110 6
b11000001101 4
0"
00
#942500
1$
0:
#945000
1"
10
#947500
0$
1:
#950000
b1011111 6
b11000001110 4
0"
00
#952500
1$
0:
#955000
1"
10
#957500
0$
1:
#960000
b1100000 6
b11100000101 4
0"
00
#962500
1$
0:
#965000
1"
10
#967500
0$
1:
#970000
b1100001 6
b11100001100 4
0"
00
#972500
1$
0:
#975000
1"
10
#977500
0$
1:
#980000
b1100010 6
b11100001101 4
0"
00
#982500
1$
0:
#985000
1"
10
#987500
0$
1:
#990000
b1100011 6
b11100001110 4
0"
00
#992500
1$
0:
#995000
1"
10
#997500
0$
1:
#1000000
b1100100 6
b100000000000 4
19
0"
00
#1002500
b0xxx0xxx0xxxxxxx0x0x0xxx0xxx0xxx %
1$
0:
#1005000
1"
10
#1007500
0$
1:
#1010000
b1100101 6
b100000000001 4
09
0"
00
#1012500
1$
0:
#1015000
1"
10
#1017500
0$
1:
#1020000
b1100110 6
b100000000010 4
19
0"
00
#1022500
b0x0x0xxx0xxxxxxx0x0x0xxx0xxx0xxx %
1$
0:
#1025000
1"
10
#1027500
0$
1:
#1030000
b1100111 6
b100000000011 4
09
0"
00
#1032500
1$
0:
#1035000
1"
10
#1037500
0$
1:
#1040000
b1101000 6
b100000000100 4
0"
00
#1042500
1$
0:
#1045000
1"
10
#1047500
0$
1:
#1050000
b1101001 6
b100000000101 4
0"
00
#1052500
1$
0:
#1055000
1"
10
#1057500
0$
1:
#1060000
b1101010 6
b100000000110 4
0"
00
#1062500
1$
0:
#1065000
1"
10
#1067500
0$
1:
#1070000
b1101011 6
b100000001000 4
19
0"
00
#1072500
b0x0x0xxx0x0xxxxx0x0x0xxx0xxx0xxx %
1$
0:
#1075000
1"
10
#1077500
0$
1:
#1080000
b1101100 6
b100000001001 4
09
0"
00
#1082500
1$
0:
#1085000
1"
10
#1087500
0$
1:
#1090000
b1101101 6
b100000001010 4
0"
00
#1092500
1$
0:
#1095000
1"
10
#1097500
0$
1:
#1100000
b1101110 6
b100000001100 4
0"
00
#1102500
1$
0:
#1105000
1"
10
#1107500
0$
1:
#1110000
b1101111 6
b100000001101 4
0"
00
#1112500
1$
0:
#1115000
1"
10
#1117500
0$
1:
#1120000
b1110000 6
b100000001110 4
0"
00
#1122500
1$
0:
#1125000
1"
10
#1127500
0$
1:
#1130000
b1110001 6
b100000010011 4
19
0"
00
#1132500
1$
0:
#1135000
1"
10
#1137500
0$
1:
#1140000
b1110010 6
b100000100011 4
09
0"
00
#1142500
1$
0:
#1145000
1"
10
#1147500
0$
1:
#1150000
b1110011 6
b100001000011 4
0"
00
#1152500
1$
0:
#1155000
1"
10
#1157500
0$
1:
#1160000
b1110100 6
b100001100011 4
0"
00
#1162500
1$
0:
#1165000
1"
10
#1167500
0$
1:
#1170000
b1110101 6
b100010000011 4
19
0"
00
#1172500
1$
0:
#1175000
1"
10
#1177500
0$
1:
#1180000
b1110110 6
b100010000101 4
09
0"
00
#1182500
1$
0:
#1185000
1"
10
#1187500
0$
1:
#1190000
b1110111 6
b100010001100 4
0"
00
#1192500
1$
0:
#1195000
1"
10
#1197500
0$
1:
#1200000
b1111000 6
b100010001101 4
19
0"
00
#1202500
1$
0:
#1205000
1"
10
#1207500
0$
1:
#1210000
b1111001 6
b100010001110 4
09
0"
00
#1212500
1$
0:
#1215000
1"
10
#1217500
0$
1:
#1220000
b1111010 6
b100010010011 4
0"
00
#1222500
1$
0:
#1225000
1"
10
#1227500
0$
1:
#1230000
b1111011 6
b100010100011 4
0"
00
#1232500
1$
0:
#1235000
1"
10
#1237500
0$
1:
#1240000
b1111100 6
b100011000011 4
0"
00
#1242500
1$
0:
#1245000
1"
10
#1247500
0$
1:
#1250000
b1111101 6
b100011100011 4
0"
00
#1252500
1$
0:
#1255000
1"
10
#1257500
0$
1:
#1260000
b1111110 6
b100100000011 4
0"
00
#1262500
1$
0:
#1265000
1"
10
#1267500
0$
1:
#1270000
b1111111 6
b100100000101 4
0"
00
#1272500
1$
0:
#1275000
1"
10
#1277500
0$
1:
#1280000
b10000000 6
b100100001100 4
0"
00
#1282500
1$
0:
#1285000
1"
10
#1287500
0$
1:
#1290000
b10000001 6
b100100001101 4
19
0"
00
#1292500
1$
0:
#1295000
1"
10
#1297500
0$
1:
#1300000
b10000010 6
b100100001110 4
0"
00
#1302500
1$
0:
#1305000
1"
10
#1307500
0$
1:
#1310000
b10000011 6
b100100010011 4
09
0"
00
#1312500
1$
0:
#1315000
1"
10
#1317500
0$
1:
#1320000
b10000100 6
b100100100011 4
0"
00
#1322500
1$
0:
#1325000
1"
10
#1327500
0$
1:
#1330000
b10000101 6
b100101000011 4
0"
00
#1332500
1$
0:
#1335000
1"
10
#1337500
0$
1:
#1340000
b10000110 6
b100101100011 4
0"
00
#1342500
1$
0:
#1345000
1"
10
#1347500
0$
1:
#1350000
b10000111 6
b100110000011 4
19
0"
00
#1352500
1$
0:
#1355000
1"
10
#1357500
0$
1:
#1360000
b10001000 6
b100110010011 4
09
0"
00
#1362500
1$
0:
#1365000
1"
10
#1367500
0$
1:
#1370000
b10001001 6
b100110100011 4
0"
00
#1372500
1$
0:
#1375000
1"
10
#1377500
0$
1:
#1380000
b10001010 6
b100111000011 4
0"
00
#1382500
1$
0:
#1385000
1"
10
#1387500
0$
1:
#1390000
b10001011 6
b100111100011 4
0"
00
#1392500
1$
0:
#1395000
1"
10
#1397500
0$
1:
#1400000
b10001100 6
b101000000100 4
0"
00
#1402500
1$
0:
#1405000
1"
10
#1407500
0$
1:
#1410000
b10001101 6
b101000000101 4
19
0"
00
#1412500
1$
0:
#1415000
1"
10
#1417500
0$
1:
#1420000
b10001110 6
b101000000110 4
09
0"
00
#1422500
1$
0:
#1425000
1"
10
#1427500
0$
1:
#1430000
b10001111 6
b101000001001 4
0"
00
#1432500
1$
0:
#1435000
1"
10
#1437500
0$
1:
#1440000
b10010000 6
b101000001010 4
0"
00
#1442500
1$
0:
#1445000
1"
10
#1447500
0$
1:
#1450000
b10010001 6
b101000001100 4
0"
00
#1452500
1$
0:
#1455000
1"
10
#1457500
0$
1:
#1460000
b10010010 6
b101000001101 4
0"
00
#1462500
1$
0:
#1465000
1"
10
#1467500
0$
1:
#1470000
b10010011 6
b101000001110 4
0"
00
#1472500
1$
0:
#1475000
1"
10
#1477500
0$
1:
#1480000
b10010100 6
b101010000101 4
0"
00
#1482500
1$
0:
#1485000
1"
10
#1487500
0$
1:
#1490000
b10010101 6
b101100000101 4
0"
00
#1492500
1$
0:
#1495000
1"
10
#1497500
0$
1:
#1500000
b10010110 6
b101100001100 4
0"
00
#1502500
1$
0:
#1505000
1"
10
#1507500
0$
1:
#1510000
b10010111 6
b101100001101 4
0"
00
#1512500
1$
0:
#1515000
1"
10
#1517500
0$
1:
#1520000
b10011000 6
b101100001110 4
0"
00
#1522500
1$
0:
#1525000
1"
10
#1527500
0$
1:
#1530000
b10011001 6
b110000000000 4
19
0"
00
#1532500
b0x0x0xxx0x0xxxxx0x0x0x0x0xxx0xxx %
1$
0:
#1535000
1"
10
#1537500
0$
1:
#1540000
b10011010 6
b110000000001 4
0"
00
#1542500
b0x0x0xxx0x0xxxxx0x0x0x0x0xxx0x1x %
1$
0:
#1545000
1"
10
#1547500
0$
1:
#1550000
b10011011 6
b110000000010 4
0"
00
#1552500
b0x0x0x0x0x0xxxxx0x0x0x0x0xxx0x1x %
1$
0:
#1555000
1"
10
#1557500
0$
1:
#1560000
b10011100 6
b110000000011 4
09
0"
00
#1562500
1$
0:
#1565000
1"
10
#1567500
0$
1:
#1570000
b10011101 6
b110000000100 4
0"
00
#1572500
1$
0:
#1575000
1"
10
#1577500
0$
1:
#1580000
b10011110 6
b110000000110 4
19
0"
00
#1582500
1$
0:
#1585000
1"
10
#1587500
0$
1:
#1590000
b10011111 6
b110000001000 4
0"
00
#1592500
b0x0x0x0x0x0xxx0x0x0x0x0x0xxx0x1x %
1$
0:
#1595000
1"
10
#1597500
0$
1:
#1600000
b10100000 6
b110000001001 4
09
0"
00
#1602500
1$
0:
#1605000
1"
10
#1607500
0$
1:
#1610000
b10100001 6
b110000001010 4
0"
00
#1612500
1$
0:
#1615000
1"
10
#1617500
0$
1:
#1620000
b10100010 6
b110000001100 4
0"
00
#1622500
1$
0:
#1625000
1"
10
#1627500
0$
1:
#1630000
b10100011 6
b110000001101 4
0"
00
#1632500
1$
0:
#1635000
1"
10
#1637500
0$
1:
#1640000
b10100100 6
b110010000011 4
0"
00
#1642500
1$
0:
#1645000
1"
10
#1647500
0$
1:
#1650000
b10100101 6
b110010000101 4
0"
00
#1652500
1$
0:
#1655000
1"
10
#1657500
0$
1:
#1660000
b10100110 6
b110010001110 4
0"
00
#1662500
1$
0:
#1665000
1"
10
#1667500
0$
1:
#1670000
b10100111 6
b110100000011 4
0"
00
#1672500
1$
0:
#1675000
1"
10
#1677500
0$
1:
#1680000
b10101000 6
b110100000101 4
0"
00
#1682500
1$
0:
#1685000
1"
10
#1687500
0$
1:
#1690000
b10101001 6
b110100001100 4
0"
00
#1692500
1$
0:
#1695000
1"
10
#1697500
0$
1:
#1700000
b10101010 6
b110100001101 4
0"
00
#1702500
1$
0:
#1705000
1"
10
#1707500
0$
1:
#1710000
b10101011 6
b110100001110 4
0"
00
#1712500
1$
0:
#1715000
1"
10
#1717500
0$
1:
#1720000
b10101100 6
b110110000011 4
0"
00
#1722500
1$
0:
#1725000
1"
10
#1727500
0$
1:
#1730000
b10101101 6
b111000000100 4
0"
00
#1732500
1$
0:
#1735000
1"
10
#1737500
0$
1:
#1740000
b10101110 6
b111000000101 4
0"
00
#1742500
1$
0:
#1745000
1"
10
#1747500
0$
1:
#1750000
b10101111 6
b111000000110 4
0"
00
#1752500
1$
0:
#1755000
1"
10
#1757500
0$
1:
#1760000
b10110000 6
b111000001001 4
0"
00
#1762500
1$
0:
#1765000
1"
10
#1767500
0$
1:
#1770000
b10110001 6
b111000001010 4
0"
00
#1772500
1$
0:
#1775000
1"
10
#1777500
0$
1:
#1780000
b10110010 6
b111000001100 4
0"
00
#1782500
1$
0:
#1785000
1"
10
#1787500
0$
1:
#1790000
b10110011 6
b111000001101 4
0"
00
#1792500
1$
0:
#1795000
1"
10
#1797500
0$
1:
#1800000
b10110100 6
b111000001110 4
0"
00
#1802500
1$
0:
#1805000
1"
10
#1807500
0$
1:
#1810000
b10110101 6
b111100000101 4
0"
00
#1812500
1$
0:
#1815000
1"
10
#1817500
0$
1:
#1820000
b10110110 6
b111100001100 4
0"
00
#1822500
1$
0:
#1825000
1"
10
#1827500
0$
1:
#1830000
b10110111 6
b111100001101 4
0"
00
#1832500
1$
0:
#1835000
1"
10
#1837500
0$
1:
#1840000
b10111000 6
b111100001110 4
0"
00
#1842500
1$
0:
#1845000
1"
10
#1847500
0$
1:
#1850000
b10111001 6
b1000000000000 4
19
0"
00
#1852500
b0x0x0x0x0x0xxx0x000x0x0x0xxx0x1x %
1$
0:
#1855000
1"
10
#1857500
0$
1:
#1860000
b10111010 6
b1000000000001 4
0"
00
#1862500
b0x0x0x0x0x0xxx0x000x0x0x00xx0x1x %
1$
0:
#1865000
1"
10
#1867500
0$
1:
#1870000
b10111011 6
b1000000000010 4
0"
00
#1872500
b0x0x0x0x0xxx0x000x0x0x00xx0x1x %
1$
0:
#1875000
1"
10
#1877500
0$
1:
#1880000
b10111100 6
b1000000000011 4
09
0"
00
#1882500
1$
0:
#1885000
1"
10
#1887500
0$
1:
#1890000
b10111101 6
b1000000000100 4
0"
00
#1892500
1$
0:
#1895000
1"
10
#1897500
0$
1:
#1900000
b10111110 6
b1000000000101 4
0"
00
#1902500
1$
0:
#1905000
1"
10
#1907500
0$
1:
#1910000
b10111111 6
b1000000000110 4
0"
00
#1912500
1$
0:
#1915000
1"
10
#1917500
0$
1:
#1920000
b11000000 6
b1000000001000 4
19
0"
00
#1922500
b0x0x0x000xxx0x000x0x0x00xx0x1x %
1$
0:
#1925000
1"
10
#1927500
0$
1:
#1930000
b11000001 6
b1000000001001 4
09
0"
00
#1932500
1$
0:
#1935000
1"
10
#1937500
0$
1:
#1940000
b11000010 6
b1000000001010 4
0"
00
#1942500
1$
0:
#1945000
1"
10
#1947500
0$
1:
#1950000
b11000011 6
b1000000001100 4
0"
00
#1952500
1$
0:
#1955000
1"
10
#1957500
0$
1:
#1960000
b11000100 6
b1000000001101 4
0"
00
#1962500
1$
0:
#1965000
1"
10
#1967500
0$
1:
#1970000
b11000101 6
b1000000001110 4
0"
00
#1972500
1$
0:
#1975000
1"
10
#1977500
0$
1:
#1980000
b11000110 6
b1000000010011 4
0"
00
#1982500
1$
0:
#1985000
1"
10
#1987500
0$
1:
#1990000
b11000111 6
b1000000100011 4
19
0"
00
#1992500
1$
0:
#1995000
1"
10
#1997500
0$
1:
#2000000
b11001000 6
b1000001000011 4
0"
00
#2002500
1$
0:
#2005000
1"
10
#2007500
0$
1:
#2010000
b11001001 6
b1000001100011 4
0"
00
#2012500
1$
0:
#2015000
1"
10
#2017500
0$
1:
#2020000
b11001010 6
b1000010000011 4
0"
00
#2022500
1$
0:
#2025000
1"
10
#2027500
0$
1:
#2030000
b11001011 6
b1000010000101 4
09
0"
00
#2032500
1$
0:
#2035000
1"
10
#2037500
0$
1:
#2040000
b11001100 6
b1000010001100 4
0"
00
#2042500
1$
0:
#2045000
1"
10
#2047500
0$
1:
#2050000
b11001101 6
b1000010001101 4
0"
00
#2052500
1$
0:
#2055000
1"
10
#2057500
0$
1:
#2060000
b11001110 6
b1000010001110 4
0"
00
#2062500
1$
0:
#2065000
1"
10
#2067500
0$
1:
#2070000
b11001111 6
b1000010010011 4
19
0"
00
#2072500
1$
0:
#2075000
1"
10
#2077500
0$
1:
#2080000
b11010000 6
b1000010100011 4
0"
00
#2082500
1$
0:
#2085000
1"
10
#2087500
0$
1:
#2090000
b11010001 6
b1000011000011 4
0"
00
#2092500
1$
0:
#2095000
1"
10
#2097500
0$
1:
#2100000
b11010010 6
b1000011100011 4
0"
00
#2102500
1$
0:
#2105000
1"
10
#2107500
0$
1:
#2110000
b11010011 6
b1000100000011 4
09
0"
00
#2112500
1$
0:
#2115000
1"
10
#2117500
0$
1:
#2120000
b11010100 6
b1000100000100 4
0"
00
#2122500
1$
0:
#2125000
1"
10
#2127500
0$
1:
#2130000
b11010101 6
b1000100000101 4
0"
00
#2132500
1$
0:
#2135000
1"
10
#2137500
0$
1:
#2140000
b11010110 6
b1000100000110 4
0"
00
#2142500
1$
0:
#2145000
1"
10
#2147500
0$
1:
#2150000
b11010111 6
b1000100001001 4
0"
00
#2152500
1$
0:
#2155000
1"
10
#2157500
0$
1:
#2160000
b11011000 6
b1000100001010 4
19
0"
00
#2162500
1$
0:
#2165000
1"
10
#2167500
0$
1:
#2170000
b11011001 6
b1000100001100 4
09
0"
00
#2172500
1$
0:
#2175000
1"
10
#2177500
0$
1:
#2180000
b11011010 6
b1000100001101 4
19
0"
00
#2182500
1$
0:
#2185000
1"
10
#2187500
0$
1:
#2190000
b11011011 6
b1000100001110 4
0"
00
#2192500
1$
0:
#2195000
1"
10
#2197500
0$
1:
#2200000
b11011100 6
b1000100010011 4
0"
00
#2202500
1$
0:
#2205000
1"
10
#2207500
0$
1:
#2210000
b11011101 6
b1000100100011 4
0"
00
#2212500
1$
0:
#2215000
1"
10
#2217500
0$
1:
#2220000
b11011110 6
b1000101000011 4
0"
00
#2222500
1$
0:
#2225000
1"
10
#2227500
0$
1:
#2230000
b11011111 6
b1000101100011 4
0"
00
#2232500
1$
0:
#2235000
1"
10
#2237500
0$
1:
#2240000
b11100000 6
b1000110000011 4
0"
00
#2242500
1$
0:
#2245000
1"
10
#2247500
0$
1:
#2250000
b11100001 6
b1000110010011 4
09
0"
00
#2252500
1$
0:
#2255000
1"
10
#2257500
0$
1:
#2260000
b11100010 6
b1000110100011 4
19
0"
00
#2262500
1$
0:
#2265000
1"
10
#2267500
0$
1:
#2270000
b11100011 6
b1000111000011 4
0"
00
#2272500
1$
0:
#2275000
1"
10
#2277500
0$
1:
#2280000
b11100100 6
b1000111100011 4
09
0"
00
#2282500
1$
0:
#2285000
1"
10
#2287500
0$
1:
#2290000
b11100101 6
b1001000000011 4
19
0"
00
#2292500
1$
0:
#2295000
1"
10
#2297500
0$
1:
#2300000
b11100110 6
b1001000000100 4
09
0"
00
#2302500
1$
0:
#2305000
1"
10
#2307500
0$
1:
#2310000
b11100111 6
b1001000000101 4
19
0"
00
#2312500
1$
0:
#2315000
1"
10
#2317500
0$
1:
#2320000
b11101000 6
b1001000000110 4
09
0"
00
#2322500
1$
0:
#2325000
1"
10
#2327500
0$
1:
#2330000
b11101001 6
b1001000001001 4
0"
00
#2332500
1$
0:
#2335000
1"
10
#2337500
0$
1:
#2340000
b11101010 6
b1001000001010 4
0"
00
#2342500
1$
0:
#2345000
1"
10
#2347500
0$
1:
#2350000
b11101011 6
b1001000001100 4
0"
00
#2352500
1$
0:
#2355000
1"
10
#2357500
0$
1:
#2360000
b11101100 6
b1001000001101 4
0"
00
#2362500
1$
0:
#2365000
1"
10
#2367500
0$
1:
#2370000
b11101101 6
b1001000001110 4
0"
00
#2372500
1$
0:
#2375000
1"
10
#2377500
0$
1:
#2380000
b11101110 6
b1001010000011 4
0"
00
#2382500
1$
0:
#2385000
1"
10
#2387500
0$
1:
#2390000
b11101111 6
b1001010000101 4
0"
00
#2392500
1$
0:
#2395000
1"
10
#2397500
0$
1:
#2400000
b11110000 6
b1001100000011 4
19
0"
00
#2402500
1$
0:
#2405000
1"
10
#2407500
0$
1:
#2410000
b11110001 6
b1001100000101 4
09
0"
00
#2412500
1$
0:
#2415000
1"
10
#2417500
0$
1:
#2420000
b11110010 6
b1001100001100 4
0"
00
#2422500
1$
0:
#2425000
1"
10
#2427500
0$
1:
#2430000
b11110011 6
b1001100001101 4
0"
00
#2432500
1$
0:
#2435000
1"
10
#2437500
0$
1:
#2440000
b11110100 6
b1001100001110 4
0"
00
#2442500
1$
0:
#2445000
1"
10
#2447500
0$
1:
#2450000
b11110101 6
b1001110000011 4
0"
00
#2452500
1$
0:
#2455000
1"
10
#2457500
0$
1:
#2460000
b11110110 6
b1010000000000 4
19
0"
00
