lab12/ql_memory_bank/run001/k4_N4_tileable_40nm/or2/MIN_ROUTE_CHAN_WIDTH/or2_formal.vcd
$date
	Wed Aug 16 11:56:13 2023
$end
$version
	Icarus Verilog
$end
$timescale
	1ps
$end
$scope module or2_autocheck_top_tb $end
$var wire 1 ! __op_clock__ $end
$var wire 1 " __prog_clock__ $end
$var wire 1 # clk $end
$var wire 1 $ enable $end
$var wire 32 % gfpga_pad_GPIO_PAD [0:31] $end
$var wire 1 & reset $end
$var wire 1 ' set $end
$var wire 1 ( c_fpga $end
$var wire 1 ) c_benchmark $end
$var reg 1 * __config_done__ $end
$var reg 1 + __greset__ $end
$var reg 1 , __gset__ $end
$var reg 1 - __op_clock___reg__ $end
$var reg 1 . __prog_clock___reg__ $end
$var reg 1 / __prog_reset__ $end
$var reg 1 0 __prog_set_ $end
$var reg 1 1 a_shared_input $end
$var reg 1 2 b_shared_input $end
$var reg 11 3 bit_index [10:0] $end
$var reg 6 4 bl_address [0:5] $end
$var reg 1 5 c_flag $end
$var reg 1 6 data_in $end
$var reg 1 7 enable_reg__ $end
$var reg 1 8 sim_start $end
$var reg 6 9 wl_address [0:5] $end
$var integer 32 : nb_error [31:0] $end
$upscope $end
$enddefinitions $end
#0
$dumpvars
b1 :
b0 9
18
07
06
05
b0 4
b0 3
12
11
10
1/
0.
0-
0,
1+
0*
1)
x(
0'
1&
bx %
1$
0#
0"
0!
$end
#5000
1.
#7500
0$
17
#10000
b1 3
b1100 9
16
0.
00
0/
#12500
bx0xxxxxxx %
1$
07
#15000
1"
1.
#17500
0$
17
#20000
b10 3
b11100 9
0"
0.
#22500
bx0xxxxx0x %
1$
07
#25000
1"
1.
#27500
0$
17
#30000
b11 3
b101100 9
0"
0.
#32500
bx0xx0xx0x %
1$
07
#35000
1"
1.
#37500
0$
17
#40000
b100 3
b1 4
b1 9
06
0"
0.
#42500
1$
07
#45000
1"
1.
#47500
0$
17
#50000
b101 3
b10 9
16
0"
0.
#52500
1$
07
#55000
1"
1.
#57500
0$
17
#60000
b110 3
b100 9
06
0"
0.
#62500
1$
07
#65000
1"
1.
#67500
0$
17
#70000
b111 3
b1000 9
0"
0.
#72500
1$
07
#75000
1"
1.
#77500
0$
17
#80000
b1000 3
b1100 9
16
0"
0.
#82500
1$
07
#85000
1"
1.
#87500
0$
17
#90000
b1001 3
b1110 9
06
0"
0.
#92500
1$
07
#95000
1"
1.
#97500
0$
17
#100000
b1010 3
b10010 9
16
0"
0.
#102500
1$
07
#105000
1"
1.
#107500
0$
17
#110000
b1011 3
b10100 9
06
0"
0.
#112500
1$
07
#115000
1"
1.
#117500
0$
17
#120000
b1100 3
b10110 9
16
0"
0.
#122500
1$
07
#125000
1"
1.
#127500
0$
17
#130000
b1101 3
b11000 9
06
0"
0.
#132500
1$
07
#135000
1"
1.
#137500
0$
17
#140000
b1110 3
b11100 9
16
0"
0.
#142500
1$
07
#145000
1"
1.
#147500
0$
17
#150000
b1111 3
b11110 9
0"
0.
#152500
1$
07
#155000
1"
1.
#157500
0$
17
#160000
b10000 3
b100010 9
06
0"
0.
#162500
1$
07
#165000
1"
1.
#167500
0$
17
#170000
b10001 3
b100100 9
0"
0.
#172500
1$
07
#175000
1"
1.
#177500
0$
17
#180000
b10010 3
b101000 9
0"
0.
#182500
1$
07
#185000
1"
1.
#187500
0$
17
#190000
b10011 3
b101100 9
0"
0.
#192500
1$
07
#195000
1"
1.
#197500
0$
17
#200000
b10100 3
b101110 9
0"
0.
#202500
1$
07
#205000
1"
1.
#207500
0$
17
#210000
b10101 3
b110000 9
0"
0.
#212500
1$
07
#215000
1"
1.
#217500
0$
17
#220000
b10110 3
b110100 9
0"
0.
#222500
1$
07
#225000
1"
1.
#227500
0$
17
#230000
b10111 3
b110110 9
0"
0.
#232500
1$
07
#235000
1"
1.
#237500
0$
17
#240000
b11000 3
b111000 9
0"
0.
#242500
1$
07
#245000
1"
1.
#247500
0$
17
#250000
b11001 3
b111100 9
0"
0.
#252500
1$
07
#255000
1"
1.
#257500
0$
17
#260000
b11010 3
b111110 9
0"
0.
#262500
1$
07
#265000
1"
1.
#267500
0$
17
#270000
b11011 3
b10 4
b1 9
0"
0.
#272500
1$
07
#275000
1"
1.
#277500
0$
17
#280000
b11100 3
b10 9
16
0"
0.
#282500
1$
07
#285000
1"
1.
#287500
0$
17
#290000
b11101 3
b100 9
06
0"
0.
#292500
1$
07
#295000
1"
1.
#297500
0$
17
#300000
b11110 3
b110 9
0"
0.
#302500
1$
07
#305000
1"
1.
#307500
0$
17
#310000
b11111 3
b1000 9
0"
0.
#312500
1$
07
#315000
1"
1.
#317500
0$
17
#320000
b100000 3
b1010 9
0"
0.
#322500
1$
07
#325000
1"
1.
#327500
0$
17
#330000
b100001 3
b1100 9
0"
0.
#332500
1$
07
#335000
1"
1.
#337500
0$
17
#340000
b100010 3
b1110 9
0"
0.
#342500
1$
07
#345000
1"
1.
#347500
0$
17
#350000
b100011 3
b10010 9
16
0"
0.
#352500
1$
07
#355000
1"
1.
#357500
0$
17
#360000
b100100 3
b10110 9
06
0"
0.
#362500
1$
07
#365000
1"
1.
#367500
0$
17
#370000
b100101 3
b11000 9
0"
0.
#372500
1$
07
#375000
1"
1.
#377500
0$
17
#380000
b100110 3
b11010 9
0"
0.
#382500
1$
07
#385000
1"
1.
#387500
0$
17
#390000
b100111 3
b11100 9
0"
0.
#392500
1$
07
#395000
1"
1.
#397500
0$
17
#400000
b101000 3
b11110 9
0"
0.
#402500
1$
07
#405000
1"
1.
#407500
0$
17
#410000
b101001 3
b100010 9
0"
0.
#412500
1$
07
#415000
1"
1.
#417500
0$
17
#420000
b101010 3
b100100 9
0"
0.
#422500
1$
07
#425000
1"
1.
#427500
0$
17
#430000
b101011 3
b100110 9
0"
0.
#432500
1$
07
#435000
1"
1.
#437500
0$
17
#440000
b101100 3
b101000 9
0"
0.
#442500
1$
07
#445000
1"
1.
#447500
0$
17
#450000
b101101 3
b101010 9
16
0"
0.
#452500
1$
07
#455000
1"
1.
#457500
0$
17
#460000
b101110 3
b101100 9
06
0"
0.
#462500
1$
07
#465000
1"
1.
#467500
0$
17
#470000
b101111 3
b101110 9
0"
0.
#472500
1$
07
#475000
1"
1.
#477500
0$
17
#480000
b110000 3
b110000 9
0"
0.
#482500
1$
07
#485000
1"
1.
#487500
0$
17
#490000
b110001 3
b110010 9
0"
0.
#492500
1$
07
#495000
1"
1.
#497500
0$
17
#500000
b110010 3
b110110 9
0"
0.
#502500
1$
07
#505000
1"
1.
#507500
0$
17
#510000
b110011 3
b111000 9
0"
0.
#512500
1$
07
#515000
1"
1.
#517500
0$
17
#520000
b110100 3
b111010 9
0"
0.
#522500
1$
07
#525000
1"
1.
#527500
0$
17
#530000
b110101 3
b111100 9
0"
0.
#532500
1$
07
#535000
1"
1.
#537500
0$
17
#540000
b110110 3
b111110 9
0"
0.
#542500
1$
07
#545000
1"
1.
#547500
0$
17
#550000
b110111 3
b100 4
b1 9
0"
0.
#552500
1$
07
#555000
1"
1.
#557500
0$
17
#560000
b111000 3
b10 9
0"
0.
#562500
1$
07
#565000
1"
1.
#567500
0$
17
#570000
b111001 3
b100 9
0"
0.
#572500
1$
07
#575000
1"
1.
#577500
0$
17
#580000
b111010 3
b1000 9
0"
0.
#582500
1$
07
#585000
1"
1.
#587500
0$
17
#590000
b111011 3
b1100 9
0"
0.
#592500
1$
07
#595000
1"
1.
#597500
0$
17
#600000
b111100 3
b1110 9
0"
0.
#602500
1$
07
#605000
1"
1.
#607500
0$
17
#610000
b111101 3
b10010 9
16
0"
0.
#612500
1$
07
#615000
1"
1.
#617500
0$
17
#620000
b111110 3
b10100 9
06
0"
0.
#622500
1$
07
#625000
1"
1.
#627500
0$
17
#630000
b111111 3
b10110 9
16
0"
0.
#632500
1$
07
#635000
1"
1.
#637500
0$
17
#640000
b1000000 3
b11000 9
06
0"
0.
#642500
1$
07
#645000
1"
1.
#647500
0$
17
#650000
b1000001 3
b11100 9
0"
0.
#652500
1$
07
#655000
1"
1.
#657500
0$
17
#660000
b1000010 3
b11110 9
0"
0.
#662500
1$
07
#665000
1"
1.
#667500
0$
17
#670000
b1000011 3
b100001 9
0"
0.
#672500
1$
07
#675000
1"
1.
#677500
0$
17
#680000
b1000100 3
b100010 9
0"
0.
#682500
1$
07
#685000
1"
1.
#687500
0$
17
#690000
b1000101 3
b100100 9
16
0"
0.
#692500
1$
07
#695000
1"
1.
#697500
0$
17
#700000
b1000110 3
b101000 9
06
0"
0.
#702500
1$
07
#705000
1"
1.
#707500
0$
17
#710000
b1000111 3
b101100 9
0"
0.
#712500
1$
07
#715000
1"
1.
#717500
0$
17
#720000
b1001000 3
b101110 9
0"
0.
#722500
1$
07
#725000
1"
1.
#727500
0$
17
#730000
b1001001 3
b110000 9
16
0"
0.
#732500
1$
07
#735000
1"
1.
#737500
0$
17
#740000
b1001010 3
b110110 9
06
0"
0.
#742500
1$
07
#745000
1"
1.
#747500
0$
17
#750000
b1001011 3
b111000 9
0"
0.
#752500
1$
07
#755000
1"
1.
#757500
0$
17
#760000
b1001100 3
b111100 9
16
0"
0.
#762500
1$
07
#765000
1"
1.
#767500
0$
17
#770000
b1001101 3
b111110 9
06
0"
0.
#772500
1$
07
#775000
1"
1.
#777500
0$
17
#780000
b1001110 3
b110 4
b10 9
0"
0.
#782500
1$
07
#785000
1"
1.
#787500
0$
17
#790000
b1001111 3
b110 9
0"
0.
#792500
1$
07
#795000
1"
1.
#797500
0$
17
#800000
b1010000 3
b1010 9
0"
0.
#802500
1$
07
#805000
1"
1.
#807500
0$
17
#810000
b1010001 3
b1100 9
0"
0.
#812500
1$
07
#815000
1"
1.
#817500
0$
17
#820000
b1010010 3
b10010 9
16
0"
0.
#822500
1$
07
#825000
1"
1.
#827500
0$
17
#830000
b1010011 3
b11010 9
06
0"
0.
#832500
1$
07
#835000
1"
1.
#837500
0$
17
#840000
b1010100 3
b11100 9
0"
0.
#842500
1$
07
#845000
1"
1.
#847500
0$
17
#850000
b1010101 3
b100010 9
0"
0.
#852500
1$
07
#855000
1"
1.
#857500
0$
17
#860000
b1010110 3
b101010 9
16
0"
0.
#862500
1$
07
#865000
1"
1.
#867500
0$
17
#870000
b1010111 3
b101100 9
06
0"
0.
#872500
1$
07
#875000
1"
1.
#877500
0$
17
#880000
b1011000 3
b110010 9
0"
0.
#882500
1$
07
#885000
1"
1.
#887500
0$
17
#890000
b1011001 3
b111010 9
0"
0.
#892500
1$
07
#895000
1"
1.
#897500
0$
17
#900000
b1011010 3
b111100 9
16
0"
0.
#902500
1$
07
#905000
1"
1.
#907500
0$
17
#910000
b1011011 3
b1000 4
b1 9
06
0"
0.
#912500
1$
07
#915000
1"
1.
#917500
0$
17
#920000
b1011100 3
b10 9
0"
0.
#922500
1$
07
#925000
1"
1.
#927500
0$
17
#930000
b1011101 3
b100 9
0"
0.
#932500
1$
07
#935000
1"
1.
#937500
0$
17
#940000
b1011110 3
b1000 9
0"
0.
#942500
1$
07
#945000
1"
1.
#947500
0$
17
#950000
b1011111 3
b1100 9
0"
0.
#952500
1$
07
#955000
1"
1.
#957500
0$
17
#960000
b1100000 3
b1110 9
0"
0.
#962500
1$
07
#965000
1"
1.
#967500
0$
17
#970000
b1100001 3
b10010 9
0"
0.
#972500
1$
07
#975000
1"
1.
#977500
0$
17
#980000
b1100010 3
b10100 9
0"
0.
#982500
1$
07
#985000
1"
1.
#987500
0$
17
#990000
b1100011 3
b10110 9
0"
0.
#992500
1$
07
#995000
1"
1.
#997500
0$
17
#1000000
b1100100 3
b11000 9
0"
0.
#1002500
1$
07
#1005000
1"
1.
#1007500
0$
17
#1010000
b1100101 3
b11100 9
16
0"
0.
#1012500
1$
07
#1015000
1"
1.
#1017500
0$
17
#1020000
b1100110 3
b11110 9
06
0"
0.
#1022500
1$
07
#1025000
1"
1.
#1027500
0$
17
#1030000
b1100111 3
b100001 9
0"
0.
#1032500
1$
07
#1035000
1"
1.
#1037500
0$
17
#1040000
b1101000 3
b100010 9
16
0"
0.
#1042500
1$
07
#1045000
1"
1.
#1047500
0$
17
#1050000
b1101001 3
b100100 9
06
0"
0.
#1052500
1$
07
#1055000
1"
1.
#1057500
0$
17
#1060000
b1101010 3
b101000 9
0"
0.
#1062500
1$
07
#1065000
1"
1.
#1067500
0$
17
#1070000
b1101011 3
b101100 9
0"
0.
#1072500
1$
07
#1075000
1"
1.
#1077500
0$
17
#1080000
b1101100 3
b101110 9
0"
0.
#1082500
1$
07
#1085000
1"
1.
#1087500
0$
17
#1090000
b1101101 3
b110000 9
0"
0.
#1092500
1$
07
#1095000
1"
1.
#1097500
0$
17
#1100000
b1101110 3
b110010 9
0"
0.
#1102500
1$
07
#1105000
1"
1.
#1107500
0$
17
#1110000
b1101111 3
b110100 9
16
0"
0.
#1112500
1$
07
#1115000
1"
1.
#1117500
0$
17
#1120000
b1110000 3
b110110 9
06
0"
0.
#1122500
1$
07
#1125000
1"
1.
#1127500
0$
17
#1130000
b1110001 3
b111000 9
0"
0.
#1132500
1$
07
#1135000
1"
1.
#1137500
0$
17
#1140000
b1110010 3
b111100 9
0"
0.
#1142500
1$
07
#1145000
1"
1.
#1147500
0$
17
#1150000
b1110011 3
b111110 9
0"
0.
#1152500
1$
07
#1155000
1"
1.
#1157500
0$
17
#1160000
b1110100 3
b1001 4
b1100 9
16
0"
0.
#1162500
bx0xxxxxxxxxxxxxxx0xx0xx0x %
1$
07
#1165000
1"
1.
#1167500
0$
17
#1170000
b1110101 3
b11100 9
0"
0.
#1172500
bx0xxxxx0xxxxxxxxx0xx0xx0x %
1$
07
#1175000
1"
1.
#1177500
0$
17
#1180000
b1110110 3
b101100 9
0"
0.
#1182500
bx0xx0xx0xxxxxxxxx0xx0xx0x %
1$
07
#1185000
1"
1.
#1187500
0$
17
#1190000
b1110111 3
b1010 4
b1 9
06
0"
0.
#1192500
1$
07
#1195000
1"
1.
#1197500
0$
17
#1200000
b1111000 3
b10 9
0"
0.
#1202500
1$
07
#1205000
1"
1.
#1207500
0$
17
#1210000
b1111001 3
b100 9
16
0"
0.
#1212500
1$
07
#1215000
1"
1.
#1217500
0$
17
#1220000
b1111010 3
b110 9
06
0"
0.
#1222500
1$
07
#1225000
1"
1.
#1227500
0$
17
#1230000
b1111011 3
b1000 9
16
0"
0.
#1232500
1$
07
#1235000
1"
1.
#1237500
0$
17
#1240000
b1111100 3
b1010 9
06
0"
0.
#1242500
1$
07
#1245000
1"
1.
#1247500
0$
17
#1250000
b1111101 3
b1100 9
0"
0.
#1252500
1$
07
#1255000
1"
1.
#1257500
0$
17
#1260000
b1111110 3
b1110 9
0"
0.
#1262500
1$
07
#1265000
1"
1.
#1267500
0$
17
#1270000
b1111111 3
b10010 9
0"
0.
#1272500
1$
07
#1275000
1"
1.
#1277500
0$
17
#1280000
b10000000 3
b10110 9
0"
0.
#1282500
1$
07
#1285000
1"
1.
#1287500
0$
17
#1290000
b10000001 3
b11000 9
16
0"
0.
#1292500
1$
07
#1295000
1"
1.
#1297500
0$
17
#1300000
b10000010 3
b11010 9
0"
0.
#1302500
1$
07
#1305000
1"
1.
#1307500
0$
17
#1310000
b10000011 3
b11100 9
06
0"
0.
#1312500
1$
07
#1315000
1"
1.
#1317500
0$
17
#1320000
b10000100 3
b11110 9
0"
0.
#1322500
1$
07
#1325000
1"
1.
#1327500
0$
17
#1330000
b10000101 3
b100010 9
16
0"
0.
#1332500
1$
07
#1335000
1"
1.
#1337500
0$
17
#1340000
b10000110 3
b100100 9
06
0"
0.
#1342500
1$
07
#1345000
1"
1.
#1347500
0$
17
#1350000
b10000111 3
b100110 9
0"
0.
#1352500
1$
07
#1355000
1"
1.
#1357500
0$
17
#1360000
b10001000 3
b101000 9
0"
0.
#1362500
1$
07
#1365000
1"
1.
#1367500
0$
17
#1370000
b10001001 3
b101010 9
0"
0.
#1372500
1$
07
#1375000
1"
1.
#1377500
0$
17
#1380000
b10001010 3
b101100 9
0"
0.
#1382500
1$
07
#1385000
1"
1.
#1387500
0$
17
#1390000
b10001011 3
b101110 9
16
0"
0.
#1392500
1$
07
#1395000
1"
1.
#1397500
0$
17
#1400000
b10001100 3
b110000 9
0"
0.
#1402500
1$
07
#1405000
1"
1.
#1407500
0$
17
#1410000
b10001101 3
b110010 9
06
0"
0.
#1412500
1$
07
#1415000
1"
1.
#1417500
0$
17
#1420000
b10001110 3
b110110 9
16
0"
0.
#1422500
1$
07
#1425000
1"
1.
#1427500
0$
17
#1430000
b10001111 3
b111000 9
06
0"
0.
#1432500
1$
07
#1435000
1"
1.
#1437500
0$
17
#1440000
b10010000 3
b111010 9
0"
0.
#1442500
1$
07
#1445000
1"
1.
#1447500
0$
17
#1450000
b10010001 3
b111100 9
0"
0.
#1452500
1$
07
#1455000
1"
1.
#1457500
0$
17
#1460000
b10010010 3
b111110 9
16
0"
0.
#1462500
1$
07
#1465000
1"
1.
#1467500
0$
17
#1470000
b10010011 3
b1100 4
b0 9
0"
0.
#1472500
bx0xx0xx0x0xxxxxxx0xx0xx0x %
1$
07
#1475000
1"
1.
#1477500
0$
17
#1480000
b10010100 3
b1 9
06
0"
0.
#1482500
1$
07
#1485000
1"
1.
#1487500
0$
17
#1490000
b10010101 3
b10 9
16
0"
0.
#1492500
1$
07
#1495000
1"
1.
#1497500
0$
17
#1500000
b10010110 3
b100 9
06
0"
0.
#1502500
1$
07
#1505000
1"
1.
#1507500
0$
17
#1510000
b10010111 3
b110 9
0"
0.
#1512500
1$
07
#1515000
1"
1.
#1517500
0$
17
#1520000
b10011000 3
b1000 9
16
0"
0.
#1522500
1$
07
#1525000
1"
1.
#1527500
0$
17
#1530000
b10011001 3
b1001 9
0"
0.
#1532500
bx1x0xx0xx0x0xxxxxxx0xx0xx0x %
1$
07
#1535000
1"
1.
#1537500
0$
17
#1540000
b10011010 3
b1010 9
06
0"
0.
#1542500
1$
07
#1545000
1"
1.
#1547500
0$
17
#1550000
b10011011 3
b1100 9
0"
0.
#1552500
1$
07
#1555000
1"
1.
#1557500
0$
17
#1560000
b10011100 3
b1110 9
0"
0.
#1562500
1$
07
#1565000
1"
1.
#1567500
0$
17
#1570000
b10011101 3
b10000 9
16
0"
0.
#1572500
bx1x0xx0xx0x0xxxxx0x0xx0xx0x %
1$
07
#1575000
1"
1.
#1577500
0$
17
#1580000
b10011110 3
b10001 9
0"
0.
#1582500
b0xxxxx1x0xx0xx0x0xxxxx0x0xx0xx0x %
1$
07
#1585000
1"
1.
#1587500
0$
17
#1590000
b10011111 3
b10010 9
06
0"
0.
#1592500
1$
07
#1595000
1"
1.
#1597500
0$
17
#1600000
b10100000 3
b10100 9
0"
0.
#1602500
1$
07
#1605000
1"
1.
#1607500
0$
17
#1610000
b10100001 3
b10110 9
0"
0.
#1612500
1$
07
#1615000
1"
1.
#1617500
0$
17
#1620000
b10100010 3
b11000 9
0"
0.
#1622500
1$
07
#1625000
1"
1.
#1627500
0$
17
#1630000
b10100011 3
b11010 9
16
0"
0.
#1632500
1$
07
#1635000
1"
1.
#1637500
0$
17
#1640000
b10100100 3
b11100 9
06
0"
0.
#1642500
1$
07
#1645000
1"
1.
#1647500
0$
17
#1650000
b10100101 3
b11110 9
0"
0.
#1652500
1$
07
#1655000
1"
1.
#1657500
0$
17
#1660000
b10100110 3
b100000 9
16
0"
0.
#1662500
b0xxxxx1x0xx0xx0x0xx0xx0x0xx0xx0x %
1$
07
#1665000
1"
1.
#1667500
0$
17
#1670000
b10100111 3
b100001 9
06
0"
0.
#1672500
1$
07
#1675000
1"
1.
#1677500
0$
17
#1680000
b10101000 3
b100010 9
0"
0.
#1682500
1$
07
#1685000
1"
1.
#1687500
0$
17
#1690000
b10101001 3
b100100 9
0"
0.
#1692500
1$
07
#1695000
1"
1.
#1697500
0$
17
#1700000
b10101010 3
b100110 9
16
0"
0.
#1702500
1$
07
#1705000
1"
1.
#1707500
0$
17
#1710000
b10101011 3
b101000 9
06
0"
0.
#1712500
1$
07
#1715000
1"
1.
#1717500
0$
17
#1720000
b10101100 3
b101010 9
0"
0.
#1722500
1$
07
#1725000
1"
1.
#1727500
0$
17
#1730000
b10101101 3
b101100 9
0"
0.
#1732500
1$
07
#1735000
1"
1.
#1737500
0$
17
#1740000
b10101110 3
b101110 9
16
0"
0.
#1742500
1$
07
#1745000
1"
1.
#1747500
0$
17
#1750000
b10101111 3
b110000 9
06
0"
0.
#1752500
1$
07
#1755000
1"
1.
#1757500
0$
17
#1760000
b10110000 3
b110001 9
16
0"
0.
#1762500
b0xx0xx1x0xx0xx0x0xx0xx0x0xx0xx0x %
1$
07
#1765000
1"
1.
#1767500
0$
17
#1770000
b10110001 3
b110010 9
06
0"
0.
#1772500
1$
07
#1775000
1"
1.
#1777500
0$
17
#1780000
b10110010 3
b110110 9
0"
0.
#1782500
1$
07
#1785000
1"
1.
#1787500
0$
17
#1790000
b10110011 3
b111000 9
0"
0.
#1792500
1$
07
#1795000
1"
1.
#1797500
0$
17
#1800000
b10110100 3
b111010 9
0"
0.
#1802500
1$
07
#1805000
1"
1.
#1807500
0$
17
#1810000
b10110101 3
b111100 9
0"
0.
#1812500
1$
07
#1815000
1"
1.
#1817500
0$
17
#1820000
b10110110 3
b111110 9
0"
0.
#1822500
1$
07
#1825000
1"
1.
#1827500
0$
17
#1830000
b10110111 3
b1110 4
b1 9
16
0"
0.
#1832500
1$
07
#1835000
1"
1.
#1837500
0$
17
#1840000
b10111000 3
b10 9
06
0"
0.
#1842500
1$
07
#1845000
1"
1.
#1847500
0$
17
#1850000
b10111001 3
b100 9
0"
0.
#1852500
1$
07
#1855000
1"
1.
#1857500
0$
17
#1860000
b10111010 3
b1000 9
0"
0.
#1862500
1$
07
#1865000
1"
1.
#1867500
0$
17
#1870000
b10111011 3
b1100 9
0"
0.
#1872500
1$
07
#1875000
1"
1.
#1877500
0$
17
#1880000
b10111100 3
b1110 9
0"
0.
#1882500
1$
07
#1885000
1"
1.
#1887500
0$
17
#1890000
b10111101 3
b10010 9
0"
0.
#1892500
1$
07
#1895000
1"
1.
#1897500
0$
17
#1900000
b10111110 3
b10100 9
0"
0.
#1902500
1$
07
#1905000
1"
1.
#1907500
0$
17
#1910000
b10111111 3
b10110 9
0"
0.
#1912500
1$
07
#1915000
1"
1.
#1917500
0$
17
#1920000
b11000000 3
b11000 9
0"
0.
#1922500
1$
07
#1925000
1"
1.
#1927500
0$
17
#1930000
b11000001 3
b11100 9
0"
0.
#1932500
1$
07
#1935000
1"
1.
#1937500
0$
17
#1940000
b11000010 3
b11110 9
0"
0.
#1942500
1$
07
#1945000
1"
1.
#1947500
0$
17
#1950000
b11000011 3
b100001 9
0"
0.
#1952500
1$
07
#1955000
1"
1.
#1957500
0$
17
#1960000
b11000100 3
b100010 9
0"
0.
#1962500
1$
07
#1965000
1"
1.
#1967500
0$
17
#1970000
b11000101 3
b100100 9
0"
0.
#1972500
1$
07
#1975000
1"
1.
#1977500
0$
17
#1980000
b11000110 3
b101000 9
0"
0.
#1982500
1$
07
#1985000
1"
1.
#1987500
0$
17
#1990000
b11000111 3
b101100 9
0"
0.
#1992500
1$
07
#1995000
1"
1.
#1997500
0$
17
#2000000
b11001000 3
b101110 9
0"
0.
#2002500
1$
07
#2005000
1"
1.
#2007500
0$
17
#2010000
b11001001 3
b110000 9
0"
0.
#2012500
1$
07
#2015000
1"
1.
#2017500
0$
17
#2020000
b11001010 3
b110010 9
0"
0.
#2022500
1$
07
#2025000
1"
1.
#2027500
0$
17
#2030000
b11001011 3
b110100 9
0"
0.
#2032500
1$
07
#2035000
1"
1.
#2037500
0$
17
#2040000
b11001100 3
b110110 9
0"
0.
#2042500
1$
07
#2045000
1"
1.
#2047500
0$
17
#2050000
b11001101 3
b111000 9
0"
0.
#2052500
1$
07
#2055000
1"
1.
#2057500
0$
17
#2060000
b11001110 3
b111100 9
0"
0.
#2062500
1$
07
#2065000
1"
1.
#2067500
0$
17
#2070000
b11001111 3
b111110 9
0"
0.
#2072500
1$
07
#2075000
1"
1.
#2077500
0$
17
#2080000
b11010000 3
b10000 4
b1100 9
16
0"
0.
#2082500
b0xx0xx1x0xx0xx0x0xx0xx0x0x00xx0x %
1$
07
#2085000
1"
1.
#2087500
0$
17
#2090000
b11010001 3
b101100 9
0"
0.
#2092500
b0xx0xx1x0xx0xx0x0xx0xx0x0x00x00x %
1$
07
#2095000
1"
1.
#2097500
0$
17
#2100000
b11010010 3
b10001 4
b1 9
06
0"
0.
#2102500
1$
07
#2105000
1"
1.
#2107500
0$
17
#2110000
b11010011 3
b10 9
0"
0.
#2112500
1$
07
#2115000
1"
1.
#2117500
0$
17
#2120000
b11010100 3
b100 9
0"
0.
#2122500
1$
07
#2125000
1"
1.
#2127500
0$
17
#2130000
b11010101 3
b1000 9
0"
0.
#2132500
1$
07
#2135000
1"
1.
#2137500
0$
17
#2140000
b11010110 3
b1100 9
0"
0.
#2142500
1$
07
#2145000
1"
1.
#2147500
0$
17
#2150000
b11010111 3
b1110 9
0"
0.
#2152500
1$
07
#2155000
1"
1.
#2157500
0$
17
#2160000
b11011000 3
b10010 9
0"
0.
#2162500
1$
07
#2165000
1"
1.
#2167500
0$
17
#2170000
b11011001 3
b10100 9
0"
0.
#2172500
1$
07
#2175000
1"
1.
#2177500
0$
17
#2180000
b11011010 3
b10110 9
0"
0.
#2182500
1$
07
#2185000
1"
1.
#2187500
0$
17
#2190000
b11011011 3
b11000 9
0"
0.
#2192500
1$
07
#2195000
1"
1.
#2197500
0$
17
#2200000
b11011100 3
b11100 9
0"
0.
#2202500
1$
07
#2205000
1"
1.
#2207500
0$
17
#2210000
b11011101 3
b11110 9
0"
0.
#2212500
1$
07
#2215000
1"
1.
#2217500
0$
17
#2220000
b11011110 3
b100010 9
0"
0.
#2222500
1$
07
#2225000
1"
1.
#2227500
0$
17
#2230000
b11011111 3
b100100 9
0"
0.
#2232500
1$
07
#2235000
1"
1.
#2237500
0$
17
#2240000
b11100000 3
b101000 9
0"
0.
#2242500
1$
07
#2245000
1"
1.
#2247500
0$
17
#2250000
b11100001 3
b101100 9
0"
0.
#2252500
1$
07
#2255000
1"
1.
#2257500
0$
17
#2260000
b11100010 3
b101110 9
0"
0.
#2262500
1$
07
#2265000
1"
1.
#2267500
0$
17
#2270000
b11100011 3
b110000 9
0"
0.
#2272500
1$
07
#2275000
1"
1.
#2277500
0$
17
#2280000
b11100100 3
b110100 9
0"
0.
#2282500
1$
07
#2285000
1"
1.
#2287500
0$
17
#2290000
b11100101 3
b110110 9
0"
0.
#2292500
1$
07
#2295000
1"
1.
#2297500
0$
17
#2300000
b11100110 3
b111000 9
16
0"
0.
#2302500
1$
07
#2305000
1"
1.
#2307500
0$
17
#2310000
b11100111 3
b111100 9
06
0"
0.
#2312500
1$
07
#2315000
1"
1.
#2317500
0$
17
#2320000
b11101000 3
b111110 9
0"
0.
#2322500
1$
07
#2325000
1"
1.
#2327500
0$
17
#2330000
b11101001 3
b10010 4
b1 9
0"
0.
#2332500
1$
07
#2335000
1"
1.
#2337500
0$
17
#2340000
b11101010 3
b10 9
0"
0.
#2342500
1$
07
#2345000
1"
1.
#2347500
0$
17
#2350000
b11101011 3
b100 9
0"
0.
#2352500
1$
07
#2355000
1"
1.
#2357500
0$
17
#2360000
b11101100 3
b110 9
0"
0.
#2362500
1$
07
#2365000
1"
1.
#2367500
0$
17
#2370000
b11101101 3
b1000 9
0"
0.
#2372500
1$
07
#2375000
1"
1.
#2377500
0$
17
#2380000
b11101110 3
b1010 9
16
0"
0.
#2382500
1$
07
#2385000
1"
1.
#2387500
0$
17
#2390000
b11101111 3
b1100 9
06
0"
0.
#2392500
1$
07
#2395000
1"
1.
#2397500
0$
17
#2400000
b11110000 3
b1110 9
0"
0.
#2402500
1$
07
#2405000
1"
1.
#2407500
0$
17
#2410000
b11110001 3
b10010 9
0"
0.
#2412500
1$
07
#2415000
1"
1.
#2417500
0$
17
#2420000
b11110010 3
b10110 9
0"
0.
#2422500
1$
07
#2425000
1"
1.
#2427500
0$
17
#2430000
b11110011 3
b11000 9
0"
0.
#2432500
1$
07
#2435000
1"
1.
#2437500
0$
17
#2440000
b11110100 3
b11010 9
0"
0.
#2442500
1$
07
#2445000
1"
1.
#2447500
0$
17
#2450000
b11110101 3
b11100 9
0"
0.
#2452500
1$
07
#2455000
1"
1.
#2457500
0$
17
#2460000
b11110110 3
b11110 9
0"
0.
#2462500
1$
07
#2465000
1"
1.
#2467500
0$
17
#2470000
b11110111 3
b100010 9
0"
0.
#2472500
1$
07
#2475000
1"
1.
#2477500
0$
17
#2480000
b11111000 3
b100100 9
0"
0.
#2482500
1$
07
#2485000
1"
1.
#2487500
0$
17
#2490000
b11111001 3
b100110 9
16
0"
0.
#2492500
1$
07
#2495000
1"
1.
#2497500
0$
17
#2500000
b11111010 3
b101000 9
06
0"
0.
#2502500
1$
07
#2505000
1"
1.
#2507500
0$
17
#2510000
b11111011 3
b101010 9
0"
0.
#2512500
1$
07
#2515000
1"
1.
#2517500
0$
17
#2520000
b11111100 3
b101100 9
0"
0.
#2522500
1$
07
#2525000
1"
1.
#2527500
0$
17
#2530000
b11111101 3
b101110 9
0"
0.
#2532500
1$
07
#2535000
1"
1.
#2537500
0$
17
#2540000
b11111110 3
b110000 9
0"
0.
#2542500
1$
07
#2545000
1"
1.
#2547500
0$
17
#2550000
b11111111 3
b110010 9
0"
0.
#2552500
1$
07
#2555000
1"
1.
#2557500
0$
17
#2560000
b100000000 3
b110110 9
0"
0.
#2562500
1$
07
#2565000
1"
1.
#2567500
0$
17
#2570000
b100000001 3
b111000 9
0"
0.
#2572500
1$
07
#2575000
1"
1.
#2577500
0$
17
